<?xml version="1.0" encoding="UTF-8"?>
<svg id="Layer_2" data-name="Layer 2" xmlns="http://www.w3.org/2000/svg" viewBox="0 0 286.41 286.49">
  <defs>
    <style>
      .cls-1, .cls-2 {
        fill: #6c5ffc;
        stroke-width: 0px;
      }

      .cls-2 {
        fill-rule: evenodd;
      }
    </style>
  </defs>
  <g id="Layer_1-2" data-name="Layer 1">
    <g>
      <circle class="cls-1" cx="136.55" cy="73.27" r="73.27"/>
      <path class="cls-2" d="M155.53,273.25c-14.36-15.38-22.34-35.65-22.31-56.7,0-22.42,8.89-42.79,23.33-57.76-6.53-.51-13.2-.77-20-.77-44.25,0-83.43,11.07-107.76,27.66C10.23,198.33,0,214.41,0,231.29v19.32c-.02,12.49,10.08,22.62,22.57,22.65.03,0,.05,0,.08,0h132.88Z"/>
      <path class="cls-2" d="M216.48,146.62c-38.61,0-69.94,31.33-69.94,69.94s31.33,69.94,69.94,69.94,69.94-31.33,69.94-69.94-31.33-69.94-69.94-69.94ZM184.29,228.2l19.98,13.32c3.96,2.64,9.24,2.11,12.6-1.25l33.3-33.3c3.9-3.9,3.9-10.22,0-14.12-3.9-3.9-10.22-3.9-14.12,0l-27.52,27.51-13.16-8.78c-4.62-3.01-10.81-1.7-13.82,2.92-2.96,4.55-1.75,10.64,2.74,13.7Z"/>
    </g>
  </g>
</svg>