<?xml version="1.0" encoding="UTF-8"?>
<svg id="Layer_2" data-name="Layer 2" xmlns="http://www.w3.org/2000/svg" viewBox="0 0 245.93 245.87">
  <defs>
    <style>
      .cls-1, .cls-2 {
        fill: #6c5ffc;
        stroke-width: 0px;
      }

      .cls-2 {
        fill-rule: evenodd;
      }
    </style>
  </defs>
  <g id="Layer_1-2" data-name="Layer 1">
    <g>
      <circle class="cls-1" cx="183.01" cy="38.77" r="38.77"/>
      <circle class="cls-1" cx="62.93" cy="130.26" r="38.77"/>
      <path class="cls-2" d="M228.78,168.68c0-4.74,3.84-8.58,8.58-8.58s8.58,3.84,8.58,8.58v45.74c0,17.37-14.08,31.45-31.45,31.45h-57.18c-4.74,0-8.58-3.84-8.58-8.58s3.84-8.58,8.58-8.58h57.18c7.89,0,14.29-6.4,14.29-14.29v-45.74ZM17.21,77.19c0,4.74-3.84,8.58-8.58,8.58S.06,81.93.06,77.19V31.45C.06,14.08,14.14,0,31.51,0h68.62C104.86,0,108.7,3.84,108.7,8.58s-3.84,8.58-8.58,8.58H31.51c-7.89,0-14.29,6.4-14.29,14.29v45.74ZM220.15,72.53c16.21,11.84,25.78,30.71,25.78,50.79,0,8.91-5.62,16.67-15.94,22.01-11.4,5.9-29.17,9.06-46.98,9.06s-35.59-3.16-46.99-9.06c-10.33-5.34-15.94-13.11-15.94-22.01,0-20.84,10.16-39.33,25.78-50.79,9.5,10.49,23,16.46,37.16,16.44,14.15.01,27.64-5.96,37.14-16.44h0ZM100.08,164.01c16.21,11.85,25.78,30.71,25.78,50.79,0,8.91-5.62,16.67-15.94,22.01-11.4,5.9-29.17,9.06-46.98,9.06s-35.59-3.16-46.99-9.06c-10.33-5.34-15.94-13.11-15.94-22.01,0-20.84,10.16-39.33,25.78-50.79,9.5,10.49,23,16.46,37.16,16.44,14.15.01,27.64-5.96,37.14-16.44h0Z"/>
    </g>
  </g>
</svg>