<?xml version="1.0" encoding="UTF-8"?>
<svg id="Layer_2" data-name="Layer 2" xmlns="http://www.w3.org/2000/svg" viewBox="0 0 281.79 286.5">
  <defs>
    <style>
      .cls-1 {
        fill: #f7b731;
        stroke-width: 0px;
      }
    </style>
  </defs>
  <g id="Layer_2-2" data-name="Layer 2">
    <g>
      <path class="cls-1" d="M279.22,260.39l-46.29-75.2c-3.03-5.14-8.67-8.33-14.73-8.33s-11.7,3.19-14.64,8.19l-46.19,75.05c-1.82,2.74-2.79,5.96-2.76,9.25.02,9.48,7.72,17.16,17.21,17.15h92.76c9.48,0,17.18-7.66,17.21-17.15,0-3.37-.96-6.57-2.57-8.96ZM218.2,268.95c-4.84,0-8.77-3.93-8.77-8.77s3.93-8.77,8.77-8.77,8.77,3.93,8.77,8.77-3.93,8.77-8.77,8.77ZM226.97,238.25c0,4.84-3.93,8.77-8.77,8.77s-8.77-3.93-8.77-8.77v-17.54c0-4.84,3.93-8.77,8.77-8.77s8.77,3.93,8.77,8.77v17.54Z"/>
      <path class="cls-1" d="M140.5,268.41c-.04-5.38,1.51-10.64,4.48-15.17l48.64-79.03c4.94-8.32,14.13-13.48,24.02-13.48s19.12,5.22,24.11,13.63l4.88,7.93-.12-29.6v-64.24c0-5.81-2.16-11.39-6.06-15.7L181.27,7.64c-4.42-4.86-10.69-7.64-17.26-7.64H36.65c-9.72,0-19.04,3.86-25.92,10.73C3.86,17.6,0,26.93,0,36.65v213.21c0,9.72,3.86,19.04,10.73,25.92,6.88,6.86,16.2,10.73,25.92,10.73h110.52c-4.14-4.89-6.65-11.2-6.67-18.09ZM163.24,18.03c1.49.74,2.84,1.76,3.97,2.98l59.19,65.12c1.02,1.12,1.84,2.41,2.43,3.81h-52.26s-.05,0-.08,0c-7.34-.02-13.27-5.99-13.25-13.33V18.03ZM49.97,93.28h66.63c5.52,0,9.99,4.47,9.99,9.99s-4.47,9.99-9.99,9.99H49.97c-5.52,0-9.99-4.47-9.99-9.99s4.47-9.99,9.99-9.99ZM49.97,146.58h93.28c5.52,0,9.99,4.47,9.99,9.99s-4.47,9.99-9.99,9.99H49.97c-5.52,0-9.99-4.47-9.99-9.99s4.47-9.99,9.99-9.99ZM116.6,219.87H49.97c-5.52,0-9.99-4.47-9.99-9.99s4.47-9.99,9.99-9.99h66.63c5.52,0,9.99,4.47,9.99,9.99s-4.47,9.99-9.99,9.99Z"/>
    </g>
  </g>
</svg>