<?xml version="1.0" encoding="UTF-8"?>
<svg id="Layer_2" data-name="Layer 2" xmlns="http://www.w3.org/2000/svg" viewBox="0 0 288.2 288.1">
  <defs>
    <style>
      .cls-1 {
        stroke-width: 0px;
      }
    </style>
  </defs>
  <g id="Layer_2-2" data-name="Layer 2">
    <g id="Layer_1-2" data-name="Layer 1-2">
      <g>
        <path class="cls-1" d="M108.1,120c-33.1,0-60-26.9-60-60S75,0,108.1,0s60,26.9,60,60-26.9,60-60,60ZM57,144c-31.5,0-57,25.6-57,57v42c0,4.9,4.1,9,9,9h111.1v-39c0-22.6,16.8-41.2,38.5-44.4,3.1-9.1,9-16.8,16.6-22.3-12-3.5-12.7-2.3-118.2-2.3h0ZM267.1,192h-15v-9c0-11.6-9.4-21-21-21h-30c-11.6,0-21,9.4-21,21v9h-15c-5.7,0-11.1,2.3-15,6.4l66.1,34.5,66.1-34.5c-4.1-4.1-9.5-6.4-15.2-6.4h0ZM198.1,192v-9c0-1.7,1.3-3,3-3h30c1.7,0,3,1.3,3,3v9h-36Z"/>
        <path class="cls-1" d="M220.3,251c-2.6,1.4-5.7,1.4-8.3,0l-67.9-35.4v51.5c0,11.6,9.4,21,21,21h102.1c11.6,0,21-9.4,21-21v-51.4l-67.9,35.3h0Z"/>
      </g>
    </g>
  </g>
</svg>