<svg xmlns="http://www.w3.org/2000/svg" width="26.912" height="18.842" viewBox="0 0 26.912 18.842">
  <path id="graduation-cap-solid" d="M13.456,1.346a2.975,2.975,0,0,0-1,.172L.664,5.778a1.012,1.012,0,0,0,0,1.9L3.1,8.557a6.922,6.922,0,0,0-1.081,3.717v1.182a7.977,7.977,0,0,1-.938,3.4,11.148,11.148,0,0,1-.946,1.581.675.675,0,0,0,.374,1.06l2.691.673a.671.671,0,0,0,.521-.084.659.659,0,0,0,.3-.437,10.841,10.841,0,0,0-.088-4.571,9.3,9.3,0,0,0-.568-1.766V12.274A5.584,5.584,0,0,1,4.537,8.847a5.134,5.134,0,0,1,2.069-1.5l6.6-2.594A.671.671,0,1,1,13.7,6L7.1,8.595A3.86,3.86,0,0,0,5.744,9.5l6.711,2.422a2.967,2.967,0,0,0,1.993,0l11.8-4.247a1.012,1.012,0,0,0,0-1.9L14.452,1.518A2.975,2.975,0,0,0,13.456,1.346ZM5.382,17.156c0,1.484,3.616,3.028,8.073,3.028s8.073-1.543,8.073-3.028l-.643-6.114L14.906,13.2a4.3,4.3,0,0,1-2.9,0L6.026,11.042Z" transform="translate(0.001 -1.346)" fill="#535353"/>
</svg>
