<svg xmlns="http://www.w3.org/2000/svg" width="26.912" height="21.534" viewBox="0 0 26.912 21.534">
  <path id="hands-praying-solid" d="M14.768.2a1.389,1.389,0,0,1,.421-.172,1.408,1.408,0,0,1,.593,0A1.334,1.334,0,0,1,16.6.6l5.042,7.561a3.348,3.348,0,0,1,.563,1.867v3.091a.675.675,0,0,0,.458.639l3.33,1.11a1.338,1.338,0,0,1,.921,1.274v4.037a1.351,1.351,0,0,1-.526,1.068,1.331,1.331,0,0,1-1.165.231l-7.1-1.892a5.382,5.382,0,0,1-3.995-5.2V9.417a1.346,1.346,0,1,1,2.691,0v3.364a.673.673,0,1,0,1.346,0V9.211a1.647,1.647,0,0,0-.223-.833L14.31,2.021a1.4,1.4,0,0,1-.151-.391A1.344,1.344,0,0,1,14.764.2ZM12.144.2a1.34,1.34,0,0,1,.6.837,1.284,1.284,0,0,1,0,.593,1.4,1.4,0,0,1-.151.391L8.969,8.379a1.658,1.658,0,0,0-.223.833v3.57a.673.673,0,0,0,1.346,0V9.417a1.346,1.346,0,1,1,2.691,0v4.975a5.386,5.386,0,0,1-3.995,5.2L1.695,21.486A1.342,1.342,0,0,1,.53,21.255,1.363,1.363,0,0,1,0,20.182V16.145a1.347,1.347,0,0,1,.921-1.278l3.33-1.11a.675.675,0,0,0,.458-.639V10.027A3.392,3.392,0,0,1,5.273,8.16L10.311.608a1.334,1.334,0,0,1,.816-.572,1.284,1.284,0,0,1,.593,0A1.307,1.307,0,0,1,12.14.2Z" transform="translate(0 0.002)" fill="#535353"/>
</svg>
