<svg id="Group_2514" data-name="Group 2514" xmlns="http://www.w3.org/2000/svg" width="28.671" height="28.669" viewBox="0 0 28.671 28.669">
  <path id="algolia" d="M14.311,0a14.324,14.324,0,1,0,6.82,26.928.335.335,0,0,0,.062-.543L19.849,25.2a.955.955,0,0,0-1-.168,11.552,11.552,0,0,1-4.687.918A11.625,11.625,0,0,1,14.311,2.7h11.63V23.361l-6.6-5.863a.487.487,0,0,0-.711.073,5.4,5.4,0,1,1,1.07-3.729.963.963,0,0,0,.319.638L21.741,16a.337.337,0,0,0,.554-.19A8.114,8.114,0,1,0,6.208,14.1a8.2,8.2,0,0,0,7.929,8.327,8.071,8.071,0,0,0,4.944-1.545l8.612,7.643a.573.573,0,0,0,.952-.431V.543A.544.544,0,0,0,28.1,0Z" transform="translate(0.026)" fill="#211c6a"/>
  <path id="Rectangle_497" data-name="Rectangle 497" d="M.916,0H4.944A.916.916,0,0,1,5.86.916V2.747a0,0,0,0,1,0,0H1.831A1.831,1.831,0,0,1,0,.916v0A.916.916,0,0,1,.916,0Z" transform="matrix(0.914, -0.407, 0.407, 0.914, 17.656, 25.489)" fill="#211c6a"/>
  <rect id="Rectangle_498" data-name="Rectangle 498" width="2.197" height="0.732" transform="matrix(0.951, -0.309, 0.309, 0.951, 23.066, 25.261)" fill="#211c6a"/>
</svg>
