<svg xmlns="http://www.w3.org/2000/svg" width="26.912" height="21.53" viewBox="0 0 26.912 21.53">
  <path id="user-clock-solid" d="M9.419,0A5.382,5.382,0,1,1,4.037,5.382,5.382,5.382,0,0,1,9.419,0ZM7.5,12.783h3.843a7.516,7.516,0,0,1,2.473.416A7.405,7.405,0,0,0,16.6,21.53H1.249A1.249,1.249,0,0,1,0,20.281,7.5,7.5,0,0,1,7.5,12.783Zm7.3,2.691a6.055,6.055,0,1,1,6.055,6.055A6.055,6.055,0,0,1,14.8,15.474Zm6.055-3.364a.675.675,0,0,0-.673.673v2.691a.675.675,0,0,0,.673.673h2.018a.673.673,0,0,0,0-1.346H21.53V12.783A.675.675,0,0,0,20.857,12.11Z" fill="#535353"/>
</svg>
