<svg xmlns="http://www.w3.org/2000/svg" width="26.973" height="21.017" viewBox="0 0 26.973 21.017">
  <path id="Path_3507" data-name="Path 3507" d="M5516.4,472.58a3.484,3.484,0,0,1-2.482,1.035,3.534,3.534,0,0,1-.368-.02,5.077,5.077,0,0,0,2.188-2.7v0a3.984,3.984,0,0,0,.136-.466,5.044,5.044,0,0,1-3.131,1.577,4.622,4.622,0,0,1-.575.033c-.062,0-.122,0-.179-.005a5.072,5.072,0,0,0-1.464-1.064,4.963,4.963,0,0,0-2.023-.5c-.059,0-.119,0-.179,0a5.034,5.034,0,0,0-1.748.309c-.139.051-.273.107-.407.172a5.08,5.08,0,0,0-2.771,5.8,14.244,14.244,0,0,1-1.563-.149c-.165-.025-.329-.053-.492-.086a14.373,14.373,0,0,1-3.711-1.229,14.627,14.627,0,0,1-4.9-3.892c-.027-.032-.054-.065-.077-.1-.036.055-.069.108-.1.164a5.049,5.049,0,0,0-.662,2.509.729.729,0,0,0,0,.085,4.922,4.922,0,0,0,.414,1.924,4.8,4.8,0,0,0,.4.747,5.081,5.081,0,0,0,1.8,1.68.667.667,0,0,0,.1.054c-.053.01-.107.019-.161.024a3.507,3.507,0,0,1-.459.03,3.642,3.642,0,0,1-2.094-.657,1.2,1.2,0,0,0,0,.133,5.074,5.074,0,0,0,4.4,5.025,3.689,3.689,0,0,1-2.606-.037,5.074,5.074,0,0,0,4.692,3.576,7.43,7.43,0,0,1-8.949,1.348,14.6,14.6,0,0,0,24.14-11.047c0-.445-.019-.883-.06-1.317a5.074,5.074,0,0,0,2.893-2.952" transform="translate(-5489.43 -470.43)" fill="#fff"/>
</svg>
