<?xml version="1.0" encoding="UTF-8"?>
<svg id="Layer_2" data-name="Layer 2" xmlns="http://www.w3.org/2000/svg" viewBox="0 0 83.12 73.05">
  <defs>
    <style>
      .cls-1 {
        fill: #2a2967;
        stroke-width: 0px;
      }
    </style>
  </defs>
  <g id="Layer_1-2" data-name="Layer 1">
    <g>
      <path class="cls-1" d="M34.25,38.96h14.61v4.87h-14.61v-4.87Z"/>
      <path class="cls-1" d="M67.43,43.83h-13.7v2.44c0,1.35-1.09,2.44-2.44,2.44h-19.48c-1.35,0-2.44-1.09-2.44-2.44v-2.44h-13.7c-3.14,0-5.94-2.01-6.93-4.99L0,12.57v53.18c0,4.03,3.28,7.31,7.31,7.31h68.51c4.03,0,7.31-3.28,7.31-7.31V12.57l-8.76,26.27c-.99,2.98-3.78,5-6.93,4.99h0Z"/>
      <path class="cls-1" d="M51.3,0h-19.48c-4.03,0-7.31,3.28-7.31,7.31v2.44H4.19l9.18,27.56c.33.99,1.26,1.67,2.31,1.66h13.7v-2.44c0-1.35,1.09-2.44,2.44-2.44h19.48c1.35,0,2.44,1.09,2.44,2.44v2.44h13.7c1.05,0,1.98-.67,2.31-1.66l9.18-27.56h-20.32v-2.44c0-4.03-3.28-7.31-7.31-7.31ZM29.38,9.74v-2.44c0-1.34,1.09-2.44,2.44-2.44h19.48c1.34,0,2.44,1.09,2.44,2.44v2.44h-24.35Z"/>
    </g>
  </g>
</svg>