<svg xmlns="http://www.w3.org/2000/svg" xmlns:xlink="http://www.w3.org/1999/xlink" width="969" height="177" viewBox="0 0 969 177">
  <defs>
    <filter id="Rectangle_549" x="0" y="0" width="969" height="177" filterUnits="userSpaceOnUse">
      <feOffset dy="3" input="SourceAlpha"/>
      <feGaussianBlur stdDeviation="3" result="blur"/>
      <feFlood flood-opacity="0.161"/>
      <feComposite operator="in" in2="blur"/>
      <feComposite in="SourceGraphic"/>
    </filter>
  </defs>
  <g transform="matrix(1, 0, 0, 1, 0, 0)" filter="url(#Rectangle_549)">
    <path id="Rectangle_549-2" data-name="Rectangle 549" d="M20,0H951a0,0,0,0,1,0,0V139a20,20,0,0,1-20,20H0a0,0,0,0,1,0,0V20A20,20,0,0,1,20,0Z" transform="translate(9 6)" fill="#211c6a"/>
  </g>
</svg>
