<svg xmlns="http://www.w3.org/2000/svg" xmlns:xlink="http://www.w3.org/1999/xlink" width="363.313" height="366.443" viewBox="0 0 363.313 366.443">
  <defs>
    <filter id="Rectangle_581" x="0" y="0" width="363.313" height="366.443" filterUnits="userSpaceOnUse">
      <feOffset dy="3" input="SourceAlpha"/>
      <feGaussianBlur stdDeviation="3" result="blur"/>
      <feFlood flood-opacity="0.161"/>
      <feComposite operator="in" in2="blur"/>
      <feComposite in="SourceGraphic"/>
    </filter>
  </defs>
  <g transform="matrix(1, 0, 0, 1, 0, 0)" filter="url(#Rectangle_581)">
    <rect id="Rectangle_581-2" data-name="Rectangle 581" width="333.754" height="337" rx="29" transform="matrix(1, -0.03, 0.03, 1, 9, 17.65)" fill="#9793dd"/>
  </g>
</svg>
