<?xml version="1.0" encoding="utf-8"?>
<!-- Generator: Adobe Illustrator 28.2.0, SVG Export Plug-In . SVG Version: 6.00 Build 0)  -->
<svg version="1.1" id="Layer_2_00000062883854953649587580000013878557408301587386_"
	 xmlns="http://www.w3.org/2000/svg" xmlns:xlink="http://www.w3.org/1999/xlink" x="0px" y="0px" viewBox="0 0 512 512"
	 style="enable-background:new 0 0 512 512;" xml:space="preserve">
<style type="text/css">
	.st0{fill:#054C32;}
</style>
<g id="Layer_1-2">
	<path class="st0" d="M256,0C114.8,0,0,114.8,0,256s114.8,256,256,256s256-114.9,256-256S397.1,0,256,0z M399.1,188.6L235.5,351
		c-9.6,9.6-25,10.3-35.3,0.6l-86.6-78.9c-10.3-9.6-10.9-25.7-1.9-35.9c9.6-10.3,25.7-10.9,35.9-1.3l68.7,62.9l146.3-146.3
		c10.3-10.3,26.3-10.3,36.6,0C409.4,162.3,409.4,178.4,399.1,188.6L399.1,188.6z"/>
</g>
</svg>
