<?xml version="1.0" encoding="utf-8"?>
<!-- Generator: Adobe Illustrator 28.2.0, SVG Export Plug-In . SVG Version: 6.00 Build 0)  -->
<svg version="1.1" id="Layer_2_00000031170722117379535640000003711073878379277992_"
	 xmlns="http://www.w3.org/2000/svg" xmlns:xlink="http://www.w3.org/1999/xlink" x="0px" y="0px" viewBox="0 0 512 471"
	 style="enable-background:new 0 0 512 471;" xml:space="preserve">
<style type="text/css">
	.st0{fill:#654C03;}
</style>
<g id="Layer_1-2">
	<path class="st0" d="M508.1,424L284,16.5C278.4,6.2,267.9,0,256,0s-22.3,6.2-28,16.5L3.9,424c-5.4,9.9-5.2,21.6,0.5,31.4
		C10.2,465.2,20.5,471,32,471h448c11.5,0,21.8-5.9,27.5-15.7C513.3,445.6,513.5,433.9,508.1,424L508.1,424z M250.9,164.3
		c1.7-0.3,3.4-0.4,5.1-0.4c14.7,0,27.8,10.6,30.2,25.4c0.6,3.4,0.5,6.8,0,10l-20.2,119.9c-0.8,5-5.2,8.5-10.1,8.5
		c-0.6,0-1.1,0-1.7-0.1c-4.4-0.7-7.7-4.2-8.4-8.3l-20.2-119.9C222.9,182.7,234.2,167,250.9,164.3L250.9,164.3L250.9,164.3z
		 M256,409.6c-16.9,0-30.7-13.8-30.7-30.7s13.8-30.7,30.7-30.7s30.7,13.8,30.7,30.7S272.9,409.6,256,409.6z"/>
</g>
</svg>
