<?xml version="1.0" encoding="UTF-8"?>
<svg id="Layer_2" data-name="Layer 2" xmlns="http://www.w3.org/2000/svg" viewBox="0 0 87.92 25.69">
  <defs>
    <style>
      .cls-1 {
        fill: #fff;
        stroke-width: 0px;
      }
    </style>
  </defs>
  <g id="Layer_1-2" data-name="Layer 1">
    <path class="cls-1" d="M78.15,2c-3.79,2.55-7.04,5.81-9.6,9.6V2h9.6M86.4,0h0,0ZM86.4,0h-19.85v19.85h0c3.4-9.2,10.66-16.45,19.85-19.85h0Z"/>
    <g>
      <path class="cls-1" d="M85.92,9.06v6.09c0,1.16-.46,2.28-1.29,3.1l-4.15,4.15c-.82.82-1.94,1.29-3.1,1.29h-6.09c5.95-3.67,10.96-8.67,14.62-14.62M87.92.41c-4.34,11.71-13.57,20.94-25.28,25.28h17.38l7.89-7.89V.41h0Z"/>
      <polygon class="cls-1" points="87.92 19.8 82.03 25.69 87.92 25.69 87.92 19.8 87.92 19.8"/>
    </g>
    <g>
      <path class="cls-1" d="M10.31,16.55v-3.54c-.02-.23,0-.46.05-.67.05-.21.14-.4.26-.56.12-.16.28-.29.47-.39.19-.1.41-.16.66-.19h1.4v5.35h1.59v2.82H1.18c-.83,0-1.23-.46-1.17-1.4v-1.42h10.3Z"/>
      <path class="cls-1" d="M27.44,16.55v-3.54c-.02-.27,0-.52.06-.74.06-.22.15-.41.28-.57.12-.16.28-.28.47-.37.19-.09.4-.13.63-.13h1.39v5.35h1.61v2.82H14.44v-2.82h1.85v-3.57c-.03-.25-.02-.48.03-.7.05-.22.14-.41.26-.56.12-.16.28-.28.47-.38.19-.09.41-.14.66-.14h1.39v5.35h2.76v-3.57c-.04-.5.06-.91.32-1.23s.63-.51,1.12-.55h1.38v5.35h2.76Z"/>
      <path class="cls-1" d="M31.48,16.55h2.72v-3.57c0-.23.02-.45.07-.66s.14-.39.25-.55c.12-.16.27-.29.45-.39.18-.1.4-.16.64-.19h1.39v5.35h2.6v2.82h-8.11v-2.82Z"/>
      <path class="cls-1" d="M39.28,16.55h2.14v-3.54c0-.44.12-.83.36-1.17.24-.33.6-.55,1.07-.64h1.38c0,.86,0,1.58,0,2.17,0,.59,0,1.08,0,1.47v1.75c0,.44-.06.84-.17,1.19-.12.35-.28.64-.48.88-.2.24-.44.42-.72.54-.28.12-.58.18-.89.17h-2.7v-2.82Z"/>
      <path class="cls-1" d="M45.7,7.41c.12-.96.6-1.46,1.43-1.51h1.39v10.64h1.72v2.82h-4.51c0-1.03,0-2.04,0-3.03,0-.99,0-1.97,0-2.95s0-1.97,0-2.96c0-.99,0-1.99,0-3.01Z"/>
      <path class="cls-1" d="M50,16.55h8.26v-2.58h-5.47c-.2,0-.39-.04-.57-.1-.18-.06-.33-.15-.46-.29s-.23-.31-.3-.53c-.07-.22-.1-.5-.1-.84v-1.02h9.72v1.61c0,.5,0,1.01,0,1.51s0,1.01,0,1.51v1.6c-.06.54-.26.98-.6,1.3s-.82.54-1.43.63h-9.05v-2.82Z"/>
      <path class="cls-1" d="M55.51,22.77c.2,0,.39.04.57.11.18.07.33.18.47.31.14.13.24.29.32.46s.11.37.11.58c0,.2-.04.38-.11.56s-.18.33-.32.46-.29.24-.47.32c-.18.08-.37.12-.57.12s-.39-.04-.57-.12c-.18-.08-.33-.18-.46-.32s-.23-.29-.31-.46-.11-.36-.11-.56c0-.21.04-.4.11-.58s.18-.33.31-.46c.13-.13.29-.24.46-.31.18-.08.37-.11.57-.11Z"/>
      <path class="cls-1" d="M41.95,22.77c.2,0,.39.04.57.11.18.07.33.18.46.31.13.13.23.29.31.46s.11.37.11.58c0,.2-.04.38-.11.56s-.18.33-.31.46-.29.24-.46.32c-.18.08-.37.12-.57.12s-.39-.04-.57-.12c-.18-.08-.33-.18-.47-.32s-.24-.29-.32-.46-.11-.36-.11-.56c0-.21.04-.4.11-.58s.18-.33.32-.46c.14-.13.29-.24.47-.31.18-.08.37-.11.57-.11Z"/>
      <path class="cls-1" d="M36.15,22.77c.2,0,.39.04.57.11.18.07.33.18.46.31.13.13.23.29.31.46s.11.37.11.58c0,.2-.04.38-.11.56s-.18.33-.31.46-.29.24-.46.32c-.18.08-.37.12-.57.12s-.39-.04-.57-.12c-.18-.08-.33-.18-.46-.32s-.24-.29-.31-.46c-.08-.18-.11-.36-.11-.56,0-.21.04-.4.11-.58.07-.18.18-.33.31-.46.13-.13.29-.24.46-.31.18-.08.37-.11.57-.11Z"/>
      <path class="cls-1" d="M31.88,22.77c.2,0,.38.04.56.11.18.07.33.18.46.31.13.13.24.29.32.46s.12.37.12.58c0,.2-.04.38-.12.56s-.18.33-.32.46-.29.24-.46.32-.36.12-.56.12c-.21,0-.4-.04-.58-.12s-.33-.18-.46-.32c-.13-.13-.24-.29-.31-.46-.07-.18-.11-.36-.11-.56,0-.21.04-.4.11-.58.08-.18.18-.33.31-.46.13-.13.29-.24.46-.31.18-.08.37-.11.58-.11Z"/>
      <path class="cls-1" d="M3.75,7.94c.2,0,.38.04.56.11.18.08.33.18.47.31.13.13.24.29.32.46.08.18.12.37.12.57s-.04.38-.12.56c-.08.18-.19.33-.32.47-.14.14-.29.24-.47.32s-.36.12-.56.12-.39-.04-.57-.12-.33-.19-.47-.32-.24-.29-.32-.47c-.08-.18-.11-.36-.11-.56s.04-.39.11-.57c.08-.18.18-.33.32-.46.14-.13.29-.24.47-.31.18-.07.37-.11.57-.11Z"/>
      <path class="cls-1" d="M7.02,7.94c.2,0,.39.04.57.11.18.08.33.18.46.31.13.13.23.29.31.46.08.18.11.37.11.57s-.04.38-.11.56c-.08.18-.18.33-.31.47s-.29.24-.46.32-.37.12-.57.12-.4-.04-.58-.12-.33-.19-.46-.32c-.13-.14-.24-.29-.31-.47-.08-.18-.11-.36-.11-.56s.04-.39.11-.57c.07-.18.18-.33.31-.46.13-.13.29-.24.46-.31.18-.07.37-.11.58-.11Z"/>
    </g>
  </g>
</svg>