<?xml version="1.0" encoding="utf-8"?>
<!-- Generator: Adobe Illustrator 27.5.0, SVG Export Plug-In . SVG Version: 6.00 Build 0)  -->
<svg version="1.1" xmlns="http://www.w3.org/2000/svg" xmlns:xlink="http://www.w3.org/1999/xlink" x="0px" y="0px"
	 viewBox="0 0 3710 3710" style="enable-background:new 0 0 3710 3710;" xml:space="preserve">
<g id="Background">
	<g>
		<g>
			<rect style="fill:#FFFFFF;" width="3710" height="3710"/>
		</g>
	</g>
</g>
<g id="Illustration">
	<g>
		<linearGradient id="SVGID_1_" gradientUnits="userSpaceOnUse" x1="3423.394" y1="3604.4326" x2="1371.9663" y2="1390.1929">
			<stop  offset="0" style="stop-color:#DAE3FE"/>
			<stop  offset="1" style="stop-color:#E9EFFD"/>
		</linearGradient>
		<path style="fill:url(#SVGID_1_);" d="M3137.514,2342.62c-281.881,658.864-1025.956,941.862-1608.951,893.61
			c-159.181-13.175-479.457-39.683-729.532-276.169c-480.25-454.158-406.287-1403.475,53.45-1962.38
			c59.205-71.975,469.011-554.203,1107.617-547.749c467.552,4.726,795.723,268.84,835.627,301.744
			c50.41,41.566,161.594,140.34,261.797,297.039C3292.965,1416.903,3313.662,1930.896,3137.514,2342.62z"/>
		<g>
			<g>
				<path style="fill:#91B3FA;" d="M2350.67,2398.395c-0.877,0-1.761-0.274-2.516-0.845c-1.84-1.391-2.205-4.011-0.814-5.855
					c3.381-4.468,6.888-8.928,10.425-13.253c1.457-1.792,4.093-2.045,5.878-0.592c1.787,1.461,2.05,4.093,0.59,5.88
					c-3.468,4.243-6.91,8.622-10.225,13.008C2353.185,2397.824,2351.935,2398.395,2350.67,2398.395z"/>
				<path style="fill:#91B3FA;" d="M3131.6,2577.245c-1.952,0-3.697-1.375-4.095-3.362c-2.207-11.078-4.884-22.21-7.958-33.075
					c-0.628-2.224,0.663-4.529,2.885-5.158c2.212-0.657,4.529,0.661,5.158,2.881c3.134,11.082,5.863,22.426,8.114,33.72
					c0.451,2.264-1.02,4.464-3.283,4.912C3132.145,2577.22,3131.87,2577.245,3131.6,2577.245z M3104.986,2491.243
					c-1.624,0-3.166-0.951-3.846-2.538c-4.423-10.36-9.327-20.703-14.577-30.741c-1.069-2.048-0.278-4.57,1.767-5.639
					c2.044-1.077,4.568-0.277,5.639,1.763c5.349,10.234,10.35,20.777,14.858,31.337c0.906,2.122-0.082,4.578-2.203,5.484
					C3106.09,2491.137,3105.533,2491.243,3104.986,2491.243z M3061.363,2412.48c-1.324,0-2.624-0.624-3.436-1.795
					c-6.457-9.299-13.347-18.439-20.475-27.167c-1.461-1.787-1.193-4.419,0.594-5.88c1.783-1.457,4.415-1.2,5.877,0.592
					c7.267,8.899,14.288,18.215,20.867,27.689c1.316,1.893,0.847,4.496-1.049,5.814
					C3063.016,2412.24,3062.185,2412.48,3061.363,2412.48z M2399.005,2344.429c-1.108,0-2.215-0.441-3.038-1.31
					c-1.583-1.677-1.51-4.321,0.167-5.904c8.356-7.896,17.142-15.571,26.112-22.813c1.792-1.452,4.425-1.171,5.876,0.628
					c1.449,1.795,1.167,4.427-0.628,5.876c-8.801,7.104-17.421,14.636-25.618,22.38
					C2401.068,2344.049,2400.036,2344.429,2399.005,2344.429z M3002.729,2344.184c-1.033,0-2.067-0.38-2.875-1.146
					c-8.187-7.761-16.795-15.293-25.578-22.385c-1.795-1.452-2.075-4.08-0.624-5.875c1.448-1.795,4.082-2.073,5.875-0.628
					c8.954,7.234,17.727,14.914,26.075,22.826c1.675,1.587,1.747,4.231,0.159,5.904
					C3004.94,2343.747,3003.834,2344.184,3002.729,2344.184z M2470.43,2289.597c-1.402,0-2.769-0.702-3.56-1.983
					c-1.212-1.962-0.602-4.537,1.361-5.749c9.823-6.067,19.98-11.808,30.184-17.068c2.051-1.061,4.572-0.253,5.627,1.799
					c1.059,2.052,0.253,4.57-1.799,5.627c-10.013,5.162-19.98,10.797-29.621,16.75
					C2471.938,2289.397,2471.179,2289.597,2470.43,2289.597z M2931.355,2289.377c-0.747,0-1.503-0.2-2.187-0.621
					c-9.583-5.9-19.553-11.51-29.638-16.676c-2.052-1.048-2.864-3.566-1.814-5.623c1.053-2.052,3.57-2.864,5.625-1.812
					c10.276,5.26,20.44,10.98,30.209,16.995c1.965,1.212,2.577,3.782,1.367,5.749
					C2934.128,2288.67,2932.759,2289.377,2931.355,2289.377z M2551.451,2250.332c-1.708,0-3.311-1.053-3.927-2.75
					c-0.788-2.171,0.332-4.566,2.501-5.358c10.829-3.929,21.944-7.479,33.038-10.543c2.222-0.612,4.523,0.686,5.139,2.913
					c0.614,2.224-0.689,4.525-2.916,5.141c-10.88,3.007-21.785,6.488-32.41,10.344
					C2552.406,2250.25,2551.925,2250.332,2551.451,2250.332z M2850.267,2250.323c-0.471,0-0.949-0.078-1.418-0.249
					c-10.619-3.827-21.526-7.292-32.422-10.291c-2.226-0.612-3.533-2.909-2.921-5.137c0.612-2.224,2.913-3.53,5.137-2.917
					c11.104,3.052,22.221,6.582,33.042,10.487c2.171,0.783,3.295,3.174,2.511,5.345
					C2853.582,2249.267,2851.979,2250.323,2850.267,2250.323z M2762.927,2228.567c-0.198,0-0.398-0.013-0.6-0.041
					c-11.164-1.604-22.55-2.779-33.84-3.505c-2.303-0.147-4.049-2.134-3.903-4.439c0.149-2.301,2.169-3.987,4.437-3.901
					c11.509,0.739,23.114,1.943,34.493,3.57c2.283,0.331,3.87,2.444,3.542,4.729
					C2766.759,2227.066,2764.971,2228.567,2762.927,2228.567z M2638.789,2228.498c-2.046,0-3.834-1.506-4.131-3.591
					c-0.325-2.281,1.263-4.398,3.548-4.725c11.4-1.624,23.007-2.815,34.495-3.537c2.338-0.041,4.289,1.607,4.433,3.909
					c0.145,2.301-1.604,4.284-3.907,4.431c-11.272,0.71-22.658,1.877-33.842,3.472
					C2639.185,2228.485,2638.987,2228.498,2638.789,2228.498z"/>
				<path style="fill:#91B3FA;" d="M3139.828,2649.41c-2.248,0-4.105-1.787-4.175-4.052c-0.167-5.48-0.442-11.037-0.818-16.521
					c-0.159-2.301,1.579-4.296,3.883-4.456c2.291-0.049,4.297,1.583,4.454,3.885c0.384,5.586,0.665,11.254,0.835,16.84
					c0.069,2.305-1.742,4.231-4.05,4.305C3139.914,2649.41,3139.871,2649.41,3139.828,2649.41z"/>
			</g>
			<g>
				<path style="fill:#91B3FA;" d="M3016.245,2968.823c-1.049,0-2.099-0.392-2.912-1.179c-1.655-1.608-1.693-4.255-0.085-5.908
					c3.852-3.967,7.653-8.034,11.298-12.094c1.541-1.706,4.185-1.848,5.9-0.314c1.716,1.543,1.857,4.187,0.314,5.904
					c-3.717,4.134-7.592,8.279-11.519,12.323C3018.424,2968.398,3017.334,2968.823,3016.245,2968.823z"/>
				<path style="fill:#91B3FA;" d="M2701.393,3102.238l-3.784-0.016c-2.308-0.024-4.16-1.914-4.138-4.219
					c0.022-2.293,1.889-4.137,4.178-4.137c0.012,0,0.027,0,0.041,0l3.703,0.016c9.868,0,19.879-0.343,29.756-1.02
					c2.313-0.049,4.296,1.583,4.453,3.885c0.157,2.301-1.581,4.297-3.882,4.456
					C2721.654,3101.887,2711.452,3102.238,2701.393,3102.238z M2642.902,3098.333c-0.186,0-0.374-0.012-0.561-0.037
					c-11.217-1.506-22.525-3.464-33.614-5.823c-2.256-0.481-3.697-2.701-3.215-4.958c0.481-2.26,2.691-3.677,4.958-3.219
					c10.878,2.317,21.977,4.244,32.981,5.716c2.287,0.306,3.893,2.412,3.586,4.697
					C2646.756,3096.807,2644.962,3098.333,2642.902,3098.333z M2785.854,3094.02c-1.957,0-3.703-1.379-4.094-3.37
					c-0.447-2.265,1.028-4.464,3.293-4.909c10.917-2.146,21.875-4.75,32.569-7.728c2.218-0.633,4.525,0.677,5.147,2.901
					c0.62,2.224-0.679,4.525-2.903,5.145c-10.901,3.04-22.071,5.692-33.202,7.884
					C2786.393,3093.995,2786.122,3094.02,2785.854,3094.02z M2556.721,3077.825c-0.455,0-0.918-0.073-1.371-0.232
					c-10.723-3.722-21.411-7.9-31.771-12.417c-2.114-0.922-3.081-3.387-2.158-5.5c0.918-2.118,3.378-3.089,5.498-2.163
					c10.164,4.431,20.653,8.532,31.174,12.188c2.179,0.755,3.333,3.138,2.577,5.317
					C2560.069,3076.743,2558.451,3077.825,2556.721,3077.825z M2870.599,3068.167c-1.632,0-3.183-0.963-3.854-2.563
					c-0.893-2.126,0.106-4.574,2.234-5.468c10.205-4.284,20.412-9.042,30.341-14.146c2.049-1.057,4.574-0.245,5.627,1.807
					c1.055,2.052,0.245,4.57-1.808,5.627c-10.119,5.198-20.524,10.05-30.925,14.416
					C2871.687,3068.065,2871.138,3068.167,2870.599,3068.167z M2476.393,3040.498c-0.726,0-1.461-0.188-2.13-0.587
					c-9.726-5.778-19.355-12.017-28.624-18.541c-1.887-1.326-2.34-3.934-1.012-5.819c1.33-1.893,3.933-2.342,5.822-1.012
					c9.093,6.398,18.541,12.518,28.081,18.19c1.985,1.179,2.636,3.741,1.459,5.725
					C2479.209,3039.768,2477.819,3040.498,2476.393,3040.498z M2948.424,3025.813c-1.336,0-2.648-0.637-3.456-1.824
					c-1.3-1.906-0.808-4.509,1.098-5.806c9.187-6.263,18.247-12.959,26.926-19.896c1.805-1.44,4.429-1.146,5.874,0.657
					c1.441,1.8,1.146,4.432-0.655,5.872c-8.844,7.067-18.076,13.889-27.436,20.271
					C2950.053,3025.576,2949.233,3025.813,2948.424,3025.813z M2405.244,2987.772c-1.004,0-2.014-0.359-2.813-1.093
					c-8.346-7.61-16.519-15.668-24.292-23.948c-1.579-1.681-1.495-4.325,0.186-5.904c1.679-1.579,4.325-1.506,5.906,0.184
					c7.626,8.124,15.646,16.027,23.831,23.499c1.706,1.555,1.826,4.195,0.271,5.9
					C2407.509,2987.315,2406.379,2987.772,2405.244,2987.772z M2346.198,2921.756c-1.292,0-2.565-0.596-3.383-1.722
					c-5.239-7.202-10.344-14.677-15.169-22.222c-1.3-2.032-2.581-4.072-3.842-6.113c-1.212-1.967-0.602-4.541,1.363-5.749
					c1.961-1.216,4.535-0.6,5.749,1.359c1.236,2.007,2.493,4.007,3.768,5.998c4.737,7.406,9.746,14.742,14.887,21.813
					c1.359,1.865,0.945,4.476-0.92,5.835C2347.909,2921.495,2347.049,2921.756,2346.198,2921.756z M2301.469,2845.278
					c-1.585,0-3.099-0.906-3.803-2.44c-4.711-10.303-9.079-20.92-12.981-31.557c-0.793-2.167,0.318-4.57,2.485-5.362
					c2.16-0.804,4.564,0.318,5.362,2.481c3.828,10.438,8.114,20.855,12.737,30.962c0.959,2.097,0.034,4.578-2.063,5.537
					C2302.642,2845.156,2302.051,2845.278,2301.469,2845.278z M2272.98,2761.39c-1.903,0-3.625-1.31-4.068-3.244
					c-2.532-11.034-4.664-22.316-6.337-33.532c-0.339-2.281,1.234-4.407,3.517-4.75c2.252-0.339,4.409,1.232,4.749,3.517
					c1.641,11.004,3.732,22.075,6.215,32.896c0.516,2.249-0.89,4.493-3.138,5.007
					C2273.604,2761.358,2273.29,2761.39,2272.98,2761.39z"/>
				<path style="fill:#91B3FA;" d="M2262.031,2673.312c-2.265,0-4.125-1.812-4.174-4.084c-0.125-5.566-0.143-11.237-0.055-16.864
					c0.037-2.31,1.951-4.06,4.244-4.113c2.308,0.037,4.15,1.938,4.113,4.243c-0.088,5.521-0.069,11.087,0.051,16.546
					c0.053,2.309-1.775,4.219-4.082,4.272C2262.094,2673.312,2262.063,2673.312,2262.031,2673.312z"/>
			</g>
			<g>
				<path style="fill:#91B3FA;" d="M2367.095,2611.488c-0.552,2.178,0.339,4.469,2.218,5.701l53.632,35.158
					c-0.543,29.944,3.684,60.19,13.001,89.568l-41.362,48.953c-1.452,1.717-1.652,4.166-0.503,6.097l39.362,66.088
					c1.151,1.931,3.401,2.92,5.6,2.463l62.745-13.053c21.396,22.183,45.975,40.307,72.564,54.09l5.37,63.904
					c0.189,2.24,1.776,4.114,3.956,4.666l74.564,18.898c2.18,0.552,4.469-0.339,5.701-2.219l35.159-53.631
					c29.943,0.543,60.189-3.685,89.567-13.001l48.953,41.363c1.717,1.451,4.165,1.653,6.097,0.503l66.088-39.363
					c1.931-1.15,2.92-3.399,2.462-5.6l-13.054-62.745c22.185-21.395,40.308-45.974,54.091-72.563l63.905-5.37
					c2.239-0.188,4.113-1.777,4.665-3.956l18.898-74.564c0.553-2.18-0.339-4.469-2.219-5.701l-53.632-35.159
					c0.545-29.943-3.684-60.189-13-89.568l41.364-48.953c1.45-1.717,1.652-4.165,0.502-6.096l-39.363-66.089
					c-1.15-1.931-3.399-2.92-5.6-2.462l-62.744,13.054c-21.395-22.185-45.976-40.308-72.564-54.092l-5.37-63.903
					c-0.187-2.24-1.777-4.115-3.956-4.667l-74.564-18.897c-2.178-0.552-4.469,0.338-5.701,2.218l-35.158,53.631
					c-29.944-0.544-60.189,3.685-89.567,13.001l-48.954-41.364c-1.715-1.45-4.164-1.652-6.095-0.501l-66.088,39.362
					c-1.931,1.15-2.92,3.399-2.463,5.6l13.054,62.744c-22.184,21.395-40.306,45.976-54.091,72.563l-63.904,5.371
					c-2.24,0.188-4.114,1.777-4.667,3.956L2367.095,2611.488z"/>
				<g>
					<path style="fill:#BDD0FB;" d="M2703.935,2731.751c-0.024,0-0.047,0-0.047,0c-19.943-0.021-38.661-7.794-52.732-21.891
						c-14.071-14.097-21.812-32.83-21.791-52.746c0.018-19.92,7.793-38.641,21.891-52.71c29.101-29.052,76.413-29.003,105.457,0.098
						c14.071,14.097,21.811,32.83,21.791,52.747c-0.018,19.92-7.793,38.641-21.891,52.71
						C2742.533,2724.01,2723.827,2731.751,2703.935,2731.751z M2703.933,2595.145c-16.55,0-32.108,6.439-43.823,18.129
						c-11.729,11.707-18.196,27.277-18.211,43.848c-0.016,16.57,6.423,32.157,18.127,43.884
						c11.707,11.727,27.279,18.194,43.85,18.21c0.019,0,0.041,0,0.059,0c16.55,0,32.108-6.439,43.823-18.129
						c11.729-11.706,18.196-27.277,18.211-43.847c0.016-16.57-6.423-32.157-18.127-43.884
						c-11.706-11.727-27.279-18.194-43.849-18.21H2703.933z"/>
				</g>
				<path style="fill:#BDD0FB;" d="M2705.865,2849.285c-65.453,0.004-129.312-33.447-165.17-93.648
					c-7.004-11.76-12.753-24.246-17.083-37.107l11.878-3.999c4.05,12.021,9.423,23.695,15.972,34.691
					c39.757,66.746,116.363,98.324,188.561,84.235c0.135-0.025,0.27-0.053,0.404-0.078c0.141-0.029,0.273-0.053,0.414-0.082
					c19.425-3.88,38.514-11.07,56.478-21.769c41.156-24.511,70.304-63.584,82.074-110.018c3.729-14.718,5.572-29.615,5.57-44.41
					c-0.006-31.892-8.589-63.311-25.333-91.424c-50.606-84.961-160.896-112.915-245.857-62.311
					c-27.936,16.64-50.798,40.486-66.112,68.958l-11.037-5.941c16.386-30.468,40.848-55.982,70.735-73.789
					c90.896-54.13,208.899-24.233,263.039,66.669c17.917,30.08,27.097,63.694,27.104,97.814c0.002,15.832-1.969,31.77-5.959,47.511
					c-12.59,49.682-43.776,91.49-87.809,117.714C2773.038,2840.586,2739.24,2849.285,2705.865,2849.285z"/>
			</g>
		</g>
		<g>
			<g>
				<path style="fill:#91B3FA;" d="M665.205,668.331c-1.036,0-2.078-0.323-2.969-0.997c-2.172-1.642-2.603-4.734-0.961-6.911
					c3.99-5.274,8.13-10.538,12.305-15.643c1.72-2.114,4.831-2.413,6.938-0.698c2.109,1.724,2.42,4.831,0.696,6.94
					c-4.094,5.009-8.156,10.177-12.07,15.354C668.174,667.657,666.698,668.331,665.205,668.331z"/>
				<path style="fill:#91B3FA;" d="M1586.972,879.435c-2.305,0-4.363-1.623-4.833-3.969c-2.605-13.076-5.765-26.215-9.394-39.04
					c-0.742-2.625,0.782-5.346,3.405-6.088c2.61-0.775,5.346,0.78,6.088,3.4c3.699,13.081,6.921,26.47,9.577,39.802
					c0.532,2.672-1.204,5.269-3.875,5.798C1587.615,879.406,1587.29,879.435,1586.972,879.435z M1555.558,777.924
					c-1.917,0-3.737-1.122-4.539-2.996c-5.221-12.228-11.01-24.437-17.206-36.285c-1.262-2.418-0.328-5.394,2.086-6.656
					c2.413-1.271,5.391-0.327,6.656,2.081c6.314,12.079,12.216,24.524,17.538,36.989c1.069,2.504-0.096,5.404-2.601,6.473
					C1556.861,777.799,1556.203,777.924,1555.558,777.924z M1504.068,684.957c-1.563,0-3.097-0.737-4.055-2.119
					c-7.622-10.976-15.754-21.764-24.168-32.066c-1.724-2.109-1.409-5.216,0.701-6.94c2.105-1.719,5.211-1.416,6.938,0.698
					c8.578,10.504,16.864,21.5,24.63,32.683c1.553,2.235,0.999,5.307-1.238,6.863
					C1506.019,684.673,1505.038,684.957,1504.068,684.957z M722.258,604.632c-1.307,0-2.615-0.52-3.585-1.546
					c-1.869-1.98-1.782-5.1,0.197-6.969c9.864-9.319,20.233-18.379,30.821-26.928c2.115-1.714,5.223-1.382,6.936,0.742
					c1.71,2.119,1.378,5.226-0.742,6.936c-10.388,8.385-20.563,17.276-30.238,26.417
					C724.692,604.184,723.474,604.632,722.258,604.632z M1434.859,604.343c-1.219,0-2.44-0.448-3.393-1.353
					c-9.664-9.161-19.824-18.051-30.191-26.422c-2.119-1.714-2.449-4.816-0.737-6.935c1.71-2.119,4.818-2.447,6.935-0.742
					c10.569,8.539,20.924,17.603,30.778,26.942c1.977,1.874,2.062,4.994,0.188,6.969
					C1437.47,603.828,1436.165,604.343,1434.859,604.343z M806.563,539.912c-1.655,0-3.268-0.829-4.202-2.341
					c-1.43-2.316-0.71-5.355,1.606-6.786c11.595-7.161,23.583-13.938,35.628-20.146c2.421-1.252,5.397-0.299,6.642,2.124
					c1.25,2.423,0.299,5.394-2.124,6.642c-11.819,6.093-23.583,12.744-34.964,19.771
					C808.343,539.676,807.447,539.912,806.563,539.912z M1350.614,539.652c-0.881,0-1.774-0.236-2.581-0.732
					c-11.311-6.964-23.079-13.586-34.983-19.684c-2.423-1.237-3.381-4.209-2.141-6.637c1.243-2.422,4.214-3.381,6.639-2.138
					c12.13,6.208,24.127,12.961,35.657,20.06c2.319,1.431,3.041,4.465,1.614,6.786
					C1353.887,538.818,1352.271,539.652,1350.614,539.652z M902.196,493.566c-2.016,0-3.909-1.243-4.635-3.246
					c-0.93-2.563,0.392-5.389,2.952-6.324c12.782-4.638,25.901-8.828,38.997-12.445c2.623-0.723,5.339,0.809,6.066,3.439
					c0.725,2.625-0.814,5.341-3.441,6.068c-12.842,3.549-25.713,7.658-38.255,12.209
					C903.323,493.469,902.755,493.566,902.196,493.566z M1254.902,493.556c-0.556,0-1.12-0.092-1.674-0.294
					c-12.534-4.518-25.408-8.607-38.269-12.147c-2.627-0.722-4.171-3.434-3.448-6.064c0.722-2.625,3.438-4.166,6.064-3.443
					c13.107,3.603,26.229,7.769,39.002,12.378c2.562,0.925,3.889,3.747,2.964,6.309
					C1258.815,492.309,1256.922,493.556,1254.902,493.556z M1151.811,467.876c-0.234,0-0.469-0.015-0.708-0.048
					c-13.177-1.893-26.616-3.28-39.943-4.137c-2.719-0.173-4.78-2.519-4.607-5.24c0.176-2.716,2.56-4.705,5.237-4.604
					c13.584,0.872,27.282,2.293,40.714,4.214c2.695,0.39,4.568,2.885,4.181,5.582
					C1156.333,466.103,1154.223,467.876,1151.811,467.876z M1005.285,467.794c-2.415,0-4.525-1.777-4.876-4.238
					c-0.383-2.692,1.49-5.192,4.188-5.577c13.456-1.917,27.156-3.323,40.716-4.175c2.76-0.048,5.062,1.897,5.233,4.614
					c0.171,2.716-1.893,5.057-4.612,5.23c-13.304,0.838-26.744,2.216-39.946,4.099
					C1005.752,467.779,1005.518,467.794,1005.285,467.794z"/>
				<path style="fill:#91B3FA;" d="M1596.684,964.615c-2.654,0-4.845-2.11-4.927-4.783c-0.197-6.468-0.522-13.028-0.966-19.501
					c-0.188-2.716,1.864-5.071,4.583-5.259c2.705-0.058,5.072,1.869,5.257,4.585c0.453,6.593,0.785,13.283,0.985,19.877
					c0.082,2.721-2.056,4.994-4.78,5.081C1596.785,964.615,1596.734,964.615,1596.684,964.615z"/>
			</g>
			<g>
				<path style="fill:#91B3FA;" d="M1450.813,1341.632c-1.238,0-2.478-0.462-3.437-1.392c-1.953-1.898-1.998-5.023-0.101-6.974
					c4.547-4.682,9.033-9.483,13.336-14.276c1.818-2.013,4.939-2.182,6.964-0.371c2.026,1.821,2.192,4.942,0.371,6.969
					c-4.387,4.879-8.961,9.772-13.596,14.545C1453.385,1341.132,1452.099,1341.632,1450.813,1341.632z"/>
				<path style="fill:#91B3FA;" d="M1079.18,1499.108l-4.467-0.019c-2.724-0.029-4.91-2.259-4.884-4.98
					c0.027-2.707,2.23-4.883,4.932-4.883h0.048l4.37,0.019c11.648,0,23.465-0.404,35.122-1.204c2.731-0.058,5.071,1.869,5.257,4.585
					c0.185,2.716-1.866,5.071-4.583,5.259C1103.094,1498.694,1091.052,1499.108,1079.18,1499.108z M1010.14,1494.499
					c-0.219,0-0.441-0.014-0.662-0.043c-13.239-1.777-26.588-4.089-39.676-6.873c-2.663-0.568-4.364-3.188-3.795-5.852
					c0.568-2.668,3.176-4.339,5.852-3.8c12.84,2.735,25.94,5.009,38.93,6.747c2.699,0.362,4.595,2.847,4.233,5.543
					C1014.689,1492.698,1012.572,1494.499,1010.14,1494.499z M1178.873,1489.408c-2.31,0-4.371-1.628-4.833-3.978
					c-0.527-2.673,1.214-5.269,3.887-5.794c12.886-2.534,25.819-5.607,38.443-9.122c2.618-0.747,5.341,0.8,6.075,3.424
					c0.732,2.625-0.802,5.341-3.427,6.073c-12.867,3.588-26.051,6.719-39.19,9.305
					C1179.509,1489.379,1179.188,1489.408,1178.873,1489.408z M908.416,1470.292c-0.537,0-1.083-0.086-1.618-0.274
					c-12.657-4.393-25.273-9.325-37.501-14.656c-2.495-1.089-3.636-3.998-2.548-6.492c1.084-2.5,3.988-3.646,6.49-2.553
					c11.997,5.23,24.377,10.071,36.796,14.386c2.572,0.891,3.935,3.704,3.042,6.276
					C912.368,1469.016,910.458,1470.292,908.416,1470.292z M1278.901,1458.893c-1.926,0-3.757-1.137-4.549-3.025
					c-1.054-2.509,0.125-5.399,2.637-6.454c12.045-5.057,24.093-10.672,35.813-16.698c2.418-1.247,5.399-0.289,6.642,2.133
					c1.245,2.422,0.289,5.394-2.134,6.642c-11.944,6.136-24.225,11.862-36.502,17.016
					C1280.184,1458.772,1279.536,1458.893,1278.901,1458.893z M813.602,1426.234c-0.857,0-1.724-0.221-2.514-0.693
					c-11.48-6.82-22.846-14.184-33.786-21.885c-2.228-1.565-2.762-4.643-1.195-6.868c1.57-2.234,4.643-2.764,6.872-1.194
					c10.733,7.552,21.885,14.776,33.145,21.471c2.343,1.392,3.112,4.416,1.722,6.757
					C816.925,1425.372,815.285,1426.234,813.602,1426.234z M1370.76,1408.9c-1.577,0-3.126-0.752-4.079-2.153
					c-1.534-2.249-0.953-5.322,1.296-6.854c10.844-7.393,21.538-15.296,31.782-23.484c2.131-1.7,5.228-1.353,6.933,0.775
					c1.7,2.124,1.353,5.231-0.773,6.931c-10.439,8.342-21.336,16.394-32.384,23.927
					C1372.684,1408.621,1371.716,1408.9,1370.76,1408.9z M729.622,1363.999c-1.185,0-2.377-0.424-3.321-1.291
					c-9.852-8.982-19.498-18.494-28.674-28.267c-1.864-1.984-1.765-5.105,0.219-6.969c1.982-1.864,5.105-1.777,6.972,0.217
					c9.002,9.589,18.468,18.918,28.129,27.736c2.013,1.835,2.155,4.951,0.321,6.964
					C732.295,1363.459,730.961,1363.999,729.622,1363.999z M659.927,1286.077c-1.524,0-3.027-0.703-3.993-2.032
					c-6.184-8.501-12.209-17.324-17.904-26.229c-1.534-2.398-3.046-4.807-4.534-7.215c-1.43-2.321-0.71-5.36,1.609-6.786
					c2.314-1.436,5.353-0.708,6.786,1.604c1.459,2.369,2.943,4.729,4.448,7.08c5.592,8.742,11.503,17.401,17.572,25.747
					c1.604,2.201,1.115,5.283-1.086,6.887C661.947,1285.769,660.931,1286.077,659.927,1286.077z M607.131,1195.807
					c-1.871,0-3.658-1.069-4.489-2.88c-5.56-12.161-10.716-24.693-15.323-37.248c-0.937-2.558,0.376-5.394,2.933-6.328
					c2.55-0.949,5.387,0.375,6.328,2.928c4.518,12.32,9.577,24.616,15.034,36.546c1.132,2.475,0.041,5.404-2.435,6.536
					C608.516,1195.663,607.818,1195.807,607.131,1195.807z M573.504,1096.791c-2.246,0-4.279-1.546-4.802-3.829
					c-2.989-13.023-5.505-26.34-7.479-39.58c-0.4-2.692,1.457-5.202,4.152-5.606c2.659-0.4,5.204,1.454,5.606,4.152
					c1.936,12.989,4.405,26.056,7.335,38.828c0.61,2.654-1.05,5.303-3.704,5.909
					C574.241,1096.752,573.871,1096.791,573.504,1096.791z"/>
				<path style="fill:#91B3FA;" d="M560.58,992.828c-2.673,0-4.869-2.138-4.927-4.821c-0.147-6.569-0.169-13.263-0.065-19.905
					c0.043-2.726,2.302-4.792,5.009-4.855c2.724,0.043,4.898,2.288,4.855,5.009c-0.104,6.516-0.082,13.086,0.06,19.53
					c0.063,2.726-2.095,4.98-4.818,5.043C560.655,992.828,560.618,992.828,560.58,992.828z"/>
			</g>
			<g>
				<path style="fill:#91B3FA;" d="M684.593,919.854c-0.652,2.572,0.4,5.275,2.618,6.729l63.305,41.499
					c-0.642,35.344,4.348,71.044,15.345,105.721l-48.822,57.781c-1.713,2.026-1.95,4.917-0.593,7.196l46.461,78.007
					c1.359,2.279,4.014,3.446,6.61,2.907l74.06-15.407c25.254,26.184,54.266,47.576,85.65,63.845l6.339,75.429
					c0.223,2.643,2.097,4.855,4.669,5.507l88.012,22.306c2.573,0.652,5.276-0.4,6.729-2.619l41.5-63.304
					c35.343,0.642,71.044-4.349,105.72-15.346l57.782,48.822c2.026,1.712,4.916,1.95,7.196,0.593l78.007-46.462
					c2.279-1.358,3.447-4.012,2.906-6.609l-15.408-74.06c26.186-25.253,47.577-54.266,63.846-85.65l75.43-6.338
					c2.642-0.223,4.855-2.098,5.506-4.67l22.306-88.011c0.653-2.573-0.4-5.275-2.619-6.729l-63.304-41.5
					c0.643-35.343-4.348-71.044-15.345-105.721l48.823-57.782c1.711-2.026,1.95-4.915,0.593-7.195l-46.462-78.008
					c-1.357-2.279-4.013-3.447-6.61-2.906l-74.06,15.409c-25.253-26.186-54.267-47.578-85.651-63.847l-6.339-75.427
					c-0.22-2.645-2.098-4.857-4.669-5.508l-88.011-22.306c-2.571-0.651-5.275,0.399-6.729,2.618l-41.499,63.303
					c-35.344-0.642-71.044,4.349-105.72,15.346l-57.783-48.823c-2.024-1.712-4.915-1.95-7.195-0.591l-78.006,46.461
					c-2.279,1.357-3.446,4.012-2.907,6.61l15.408,74.06c-26.185,25.253-47.576,54.267-63.846,85.649l-75.428,6.34
					c-2.644,0.222-4.855,2.097-5.508,4.669L684.593,919.854z"/>
				<g>
					<path style="fill:#BDD0FB;" d="M1082.18,1061.806c0,0-0.055,0-0.084,0c-23.51-0.024-45.604-9.199-62.213-25.839
						c-16.609-16.64-25.745-38.751-25.721-62.259c0.022-23.513,9.199-45.609,25.839-62.216
						c34.349-34.292,90.193-34.234,124.475,0.115c16.608,16.64,25.745,38.751,25.721,62.259
						c-0.022,23.513-9.199,45.61-25.839,62.216C1127.739,1052.669,1105.66,1061.806,1082.18,1061.806z M1082.178,900.564
						c-19.534,0-37.898,7.6-51.726,21.399c-13.845,13.818-21.478,32.196-21.495,51.755c-0.019,19.559,7.581,37.956,21.396,51.798
						c13.818,13.842,32.199,21.475,51.758,21.495c0.022,0,0.048,0,0.048,0c19.557,0,37.921-7.6,51.748-21.399
						c13.844-13.817,21.478-32.196,21.495-51.755c0.019-19.559-7.581-37.957-21.396-51.799
						c-13.817-13.841-32.199-21.475-51.757-21.495C1082.226,900.564,1082.199,900.564,1082.178,900.564z"/>
				</g>
				<path style="fill:#BDD0FB;" d="M1084.458,1200.537c-77.257,0.004-152.633-39.479-194.957-110.537
					c-8.267-13.881-15.053-28.618-20.163-43.799l14.02-4.72c4.78,14.188,11.123,27.968,18.853,40.947
					c46.927,78.783,137.349,116.056,222.567,99.426c0.159-0.029,0.318-0.063,0.477-0.092c0.166-0.034,0.323-0.063,0.489-0.096
					c22.928-4.58,45.46-13.066,66.664-25.695c48.579-28.931,82.983-75.051,96.876-129.859c4.402-17.372,6.577-34.956,6.574-52.42
					c-0.007-37.643-10.138-74.729-29.901-107.912c-59.733-100.283-189.913-133.279-290.196-73.548
					c-32.974,19.64-59.959,47.787-78.034,81.394l-13.028-7.012c19.342-35.963,48.215-66.079,83.491-87.097
					c107.288-63.892,246.573-28.603,310.477,78.692c21.148,35.505,31.984,75.181,31.992,115.454
					c0.002,18.687-2.324,37.499-7.034,56.08c-14.861,58.642-51.671,107.989-103.645,138.943
					C1163.745,1190.268,1123.852,1200.537,1084.458,1200.537z"/>
			</g>
		</g>
		<g>
			
				<linearGradient id="SVGID_00000063598603909850876270000016838624346076349853_" gradientUnits="userSpaceOnUse" x1="1901.8027" y1="3185.1096" x2="1872.1577" y2="2598.1462">
				<stop  offset="0" style="stop-color:#09005D"/>
				<stop  offset="1" style="stop-color:#1A0F91"/>
			</linearGradient>
			<polygon style="fill:url(#SVGID_00000063598603909850876270000016838624346076349853_);" points="1654.07,2518.751 
				1604.833,2960.33 2176.067,2960.33 2101.663,2518.751 			"/>
			
				<linearGradient id="SVGID_00000043454229935176811050000015811566344245309832_" gradientUnits="userSpaceOnUse" x1="455.822" y1="1860.6542" x2="3194.6694" y2="1860.6542">
				<stop  offset="0" style="stop-color:#09005D"/>
				<stop  offset="1" style="stop-color:#1A0F91"/>
			</linearGradient>
			<path style="fill:url(#SVGID_00000043454229935176811050000015811566344245309832_);" d="M455.822,1211.962v1214.751
				c0,99.93,79.632,181.648,179.528,184.224c443.687,11.441,1995.488,39.183,2417.848,32.957
				c72.593-1.07,131.399-59.161,133.494-131.731c8.144-282.203,21.371-960.808-27.578-1275.857
				c-10.309-66.346-66.311-115.958-133.418-118.105c-371.753-11.893-2016.765-49.656-2438.927-40.175
				C513.96,1079.661,455.822,1139.135,455.822,1211.962z"/>
			
				<linearGradient id="SVGID_00000054253913299392996890000006858587200845543814_" gradientUnits="userSpaceOnUse" x1="3380.8801" y1="1022.788" x2="-2560.2822" y2="3993.3755">
				<stop  offset="0" style="stop-color:#4F52FF"/>
				<stop  offset="1" style="stop-color:#4042E2"/>
			</linearGradient>
			<path style="fill:url(#SVGID_00000054253913299392996890000006858587200845543814_);" d="M532.044,1206.049v1154.098
				c0,58.344,46.835,105.884,105.173,106.757l2355.218,29.098c57.838,0.865,105.247-45.668,105.462-103.512l3.94-1143.786
				c0.155-41.359-32.797-75.248-74.144-76.254l-2411.307-48.715C570.141,1122.609,532.044,1159.79,532.044,1206.049z"/>
			<path style="fill:#91B3FA;" d="M3115.629,2543.409h-0.056l-2583.584-44.022c-1.865-0.033-3.352-1.569-3.319-3.432
				c0.033-1.864,1.645-3.241,3.431-3.317l2583.583,44.022c1.865,0.033,3.352,1.569,3.319,3.432
				C3118.971,2541.936,3117.468,2543.409,3115.629,2543.409z"/>
			<path style="fill:#91B3FA;" d="M1849.321,2597.173c-16.682,0-30.256-13.573-30.256-30.257c0-16.684,13.574-30.256,30.256-30.256
				s30.256,13.573,30.256,30.256C1879.578,2583.6,1866.003,2597.173,1849.321,2597.173z M1849.321,2543.409
				c-12.961,0-23.507,10.546-23.507,23.507c0,12.961,10.546,23.507,23.507,23.507c12.961,0,23.507-10.546,23.507-23.507
				C1872.828,2553.955,1862.283,2543.409,1849.321,2543.409z"/>
			
				<linearGradient id="SVGID_00000162328772205539986670000001678627788842586036_" gradientUnits="userSpaceOnUse" x1="1903.6478" y1="2963.625" x2="1630.9166" y2="3562.4475">
				<stop  offset="0" style="stop-color:#09005D"/>
				<stop  offset="1" style="stop-color:#1A0F91"/>
			</linearGradient>
			<path style="fill:url(#SVGID_00000162328772205539986670000001678627788842586036_);" d="M2299.111,3050.676h-836.04
				c-22.713,0-39.769-16.169-35.377-33.537l10.727-42.427c3.226-12.759,17.263-22.126,33.935-22.646l805.973-25.15
				c17.418-0.543,32.84,8.702,36.635,21.963l19.339,67.576C2339.328,3034.012,2322.19,3050.676,2299.111,3050.676z"/>
			<path style="fill:#91B3FA;" d="M1913.126,2964.21c-1.842,0-3.348-1.478-3.375-3.325c-0.026-1.864,1.463-3.396,3.325-3.424
				l34.537-0.506h0.049c1.842,0,3.348,1.478,3.375,3.325c0.026,1.864-1.463,3.396-3.325,3.424l-34.537,0.506H1913.126z"/>
			<path style="fill:#91B3FA;" d="M1458.645,3027.936c-0.175,0-0.356-0.013-0.534-0.043c-1.842-0.293-3.094-2.023-2.801-3.864
				l4.927-30.858c2.699-16.895,17.074-29.338,34.178-29.589l366.316-5.357c1.921-0.087,3.398,1.462,3.424,3.325
				c0.026,1.864-1.463,3.396-3.325,3.424l-366.316,5.357c-13.818,0.201-25.432,10.256-27.613,23.904l-4.927,30.858
				C1461.71,3026.752,1460.276,3027.936,1458.645,3027.936z"/>
			<path style="opacity:0.03;fill:#FFFFFF;" d="M2927.891,1225.693L677.12,1197.982c-35.467-0.436-64.313,28.583-64.819,64.87
				l-14.465,1048.19c-0.499,35.822,27.167,65.472,62.162,66.71l2263.537,80.091c31.488,1.115,60.995-10.905,83.656-33.302
				c22.661-22.397,34.385-53.251,34.385-85.486v-994.51C3041.576,1279.458,2991.502,1226.476,2927.891,1225.693z"/>
		</g>
		<g>
			<g>
				<path style="fill:#7D97F4;" d="M659.71,1168.69h1150.63c31.373,0,56.646,31.744,56.077,70.438l-16.188,1101.123
					c-0.762,51.824-35.314,93.157-77.331,92.507l-1114.427-17.251c-30.712-0.475-55.401-31.333-55.383-69.219l0.535-1108.456
					C603.643,1199.64,628.748,1168.69,659.71,1168.69z"/>
				<path style="fill:#91B3FA;" d="M677.91,1201.161h1104.875c30.126,0,54.393,30.425,53.847,67.509l-15.545,1055.341
					c-0.732,49.669-33.91,89.283-74.256,88.66L676.72,2396.138c-29.49-0.456-53.198-30.03-53.18-66.341l0.514-1062.369
					C624.072,1230.823,648.179,1201.161,677.91,1201.161z"/>
			</g>
			<g>
				<path style="fill:#FFFFFF;" d="M1438.585,1328.346c-0.112,0-0.227,0-0.339-0.002l-729.655-8.137
					c-19.875-0.222-36.047-15.937-36.05-35.028l-0.003-28.612c-0.003-7.521,3.052-14.581,8.601-19.879
					c5.487-5.233,12.764-8.117,20.488-8.117h741.905c7.857,0,15.361,3.24,20.587,8.886c5.016,5.416,7.468,12.386,6.907,19.627
					l-3.503,45.403C1466.403,1317.048,1453.722,1328.346,1438.585,1328.346z M701.627,1238.695c-5.111,0-9.903,1.888-13.495,5.317
					c-3.53,3.366-5.471,7.825-5.471,12.553l0.003,28.612c0.003,13.573,11.683,24.746,26.038,24.906l729.655,8.137
					c0.076,0.002,0.152,0.002,0.227,0.002c9.873,0,18.129-7.214,18.847-16.512l3.503-45.404c0.339-4.396-1.17-8.647-4.245-11.971
					c-3.319-3.584-8.114-5.639-13.159-5.639H701.627z"/>
				<path style="opacity:0.4;fill:#FFFFFF;" d="M1429.682,1313.003l-707.827-5.96c-16.686-0.141-30.111-9.926-30.114-21.949
					l-0.005-20.954c-0.002-9.277,10.434-16.798,23.309-16.798h719.71c12.692,0,22.71,7.769,21.778,16.89l-3.399,33.255
					C1452.233,1306.31,1441.96,1313.106,1429.682,1313.003z"/>
				<path style="opacity:0.59;fill:#FFFFFF;" d="M1672.042,1435.824H677.874c-6.596,0-11.943-5.894-11.943-13.165v-35.215
					c0-7.316,5.411-13.229,12.048-13.164l994.169,9.69c6.554,0.064,11.837,5.939,11.837,13.165v25.525
					C1683.985,1429.93,1678.638,1435.824,1672.042,1435.824z"/>
				<path style="opacity:0.4;fill:#FFFFFF;" d="M1750.726,1675.621l-1046.967-13.965c-18.615-0.248-33.576-15.409-33.576-34.026
					v-143.751c0-19.146,15.63-34.61,34.775-34.405l1043.924,11.164c20.589,0.22,37.164,16.973,37.164,37.563v142.568
					C1786.046,1660.2,1770.156,1675.88,1750.726,1675.621z"/>
				<path style="opacity:0.59;fill:#FFFFFF;" d="M1581.681,1782.65H676.389c-6.006,0-10.875-5.894-10.875-13.165v-35.215
					c0-7.316,4.928-13.229,10.971-13.164l905.292,9.69c5.968,0.064,10.779,5.939,10.779,13.165v25.525
					C1592.556,1776.756,1587.687,1782.65,1581.681,1782.65z"/>
				<path style="opacity:0.4;fill:#FFFFFF;" d="M1750.309,2043.932L703.342,2028.64c-18.615-0.272-33.576-16.873-33.576-37.259
					v-157.407c0-20.965,15.63-37.898,34.775-37.674l1043.924,12.225c20.589,0.241,37.164,18.586,37.164,41.132v156.113
					C1785.629,2027.047,1769.739,2044.216,1750.309,2043.932z"/>
				<path style="opacity:0.59;fill:#FFFFFF;" d="M1777.129,2156.873H680.81c-7.273,0-13.17-5.894-13.17-13.165v-35.215
					c0-7.316,5.968-13.229,13.286-13.165l1096.319,9.69c7.228,0.064,13.053,5.939,13.053,13.165v25.525
					C1790.298,2150.979,1784.402,2156.873,1777.129,2156.873z"/>
				<path style="opacity:0.4;fill:#FFFFFF;" d="M1752.435,2385.708L705.468,2372.42c-18.615-0.236-33.576-14.663-33.576-32.377
					V2203.26c0-18.218,15.63-32.932,34.775-32.738l1043.924,10.623c20.589,0.21,37.164,16.151,37.164,35.743v135.658
					C1787.755,2371.035,1771.865,2385.955,1752.435,2385.708z"/>
			</g>
		</g>
		<g>
			<g>
				<path style="fill:#7D97F4;" d="M2053.341,870.86h1127.661c30.747,0,55.515,31.382,54.958,69.633l-15.865,1088.546
					c-0.747,51.232-34.61,92.093-103.918,91.45l-1049.795-16.392c-36.477-0.569-67.036-29.147-68.464-65.6
					c-0.045-1.156-0.068-2.32-0.068-3.49l0.525-1095.794C1998.392,901.456,2022.996,870.86,2053.341,870.86z"/>
				<path style="fill:#BDD0FB;" d="M2078.21,900.338h1082.82c29.524,0,53.308,29.817,52.772,66.162l-15.234,1034.274
					c-0.717,48.677-33.233,87.501-72.774,86.891l-1048.75-16.203c-28.902-0.447-52.136-29.431-52.119-65.017l0.504-1041.162
					C2025.446,929.409,2049.072,900.338,2078.21,900.338z"/>
			</g>
			<g>
				<path style="fill:#7D97F4;" d="M3107.847,1109.491h-991.433c-12.138,0-21.978-9.84-21.978-21.978v-53.479
					c0-12.736,10.324-23.06,23.06-23.06h986.457c12.425,0,22.498,10.073,22.498,22.498v57.416
					C3126.45,1101.162,3118.122,1109.491,3107.847,1109.491z"/>
				<path style="opacity:0.27;fill:#FFFFFF;" d="M3042.897,1079.515h-378.24c-6.236,2.344-11.291-3.253-11.291-10.158v-18.53
					c0-6.905,5.055-12.503,11.291-12.503h378.24c6.236,0,11.291,5.598,11.291,12.503v18.53
					C3054.188,1076.261,3049.133,1081.859,3042.897,1079.515z"/>
				<path style="fill:#7D97F4;" d="M2836.176,1599.113c0,25.938-20.999,46.981-46.937,47.034l-658.716,1.357
					c-17.216,0-31.173-14.276-31.173-31.885V1265.67c0-17.804,14.254-32.158,31.658-31.882l674.481,10.729
					c17.025,0.271,30.688,14.465,30.688,31.882V1599.113z"/>
				<path style="fill:#91B3FA;" d="M2751.852,2029.896l-281.842-2.343c-9.524-0.079-17.18-7.864-17.101-17.388l2.346-282.281
					c0.078-9.35,7.594-16.935,16.943-17.099l278.317,5.28c11.787,0.224,21.197,9.896,21.095,21.685l-2.37,275.044
					C2769.161,2022.319,2761.376,2029.976,2751.852,2029.896z"/>
				<path style="fill:#91B3FA;" d="M2393.38,2029.896l-281.842-2.343c-9.524-0.079-17.18-7.864-17.101-17.388l2.346-282.281
					c0.078-9.35,7.593-16.935,16.943-17.099l278.317,5.28c11.787,0.224,21.197,9.896,21.095,21.685l-2.37,275.044
					C2410.688,2022.319,2402.904,2029.976,2393.38,2029.896z"/>
				<path style="fill:#91B3FA;" d="M3106.692,2036.573l-281.842-2.342c-9.524-0.079-17.18-7.864-17.101-17.388l2.346-282.281
					c0.078-9.35,7.593-16.935,16.943-17.099l278.317,5.28c11.787,0.224,21.197,9.896,21.095,21.685l-2.37,275.044
					C3124,2028.996,3116.216,2036.652,3106.692,2036.573z"/>
				<path style="fill:#91B3FA;" d="M3102.756,1663.239H2898.98c-13.086,0-23.695-10.679-23.695-23.853V1267.06
					c0-11.067,8.603-20.056,19.253-20.116l209.251-1.179c12.672,0.557,22.661,11.061,22.661,23.83v369.79
					C3126.45,1652.56,3115.842,1663.239,3102.756,1663.239z"/>
				<g>
					<path style="fill:#FFFFFF;" d="M2331.106,989.726c-18.271,0-33.137-14.866-33.137-33.138c0-18.272,14.866-33.137,33.137-33.137
						s33.137,14.865,33.137,33.137C2364.243,974.859,2349.377,989.726,2331.106,989.726z M2331.106,930.2
						c-14.55,0-26.387,11.838-26.387,26.387c0,14.551,11.838,26.389,26.387,26.389s26.387-11.838,26.387-26.389
						C2357.493,942.038,2345.656,930.2,2331.106,930.2z"/>
					<path style="fill:#FFFFFF;" d="M2228.094,992.138c-18.271,0-33.137-14.865-33.137-33.137c0-18.272,14.866-33.137,33.137-33.137
						c18.27,0,33.136,14.865,33.136,33.137C2261.231,977.273,2246.365,992.138,2228.094,992.138z M2228.094,932.614
						c-14.55,0-26.387,11.837-26.387,26.387s11.838,26.387,26.387,26.387s26.387-11.838,26.387-26.387
						S2242.644,932.614,2228.094,932.614z"/>
					<path style="fill:#FFFFFF;" d="M2129.113,992.138c-18.274,0-33.14-14.865-33.14-33.137c0-18.272,14.866-33.137,33.14-33.137
						c18.27,0,33.136,14.865,33.136,33.137C2162.249,977.273,2147.383,992.138,2129.113,992.138z M2129.113,932.614
						c-14.553,0-26.391,11.837-26.391,26.387s11.838,26.387,26.391,26.387c14.55,0,26.387-11.838,26.387-26.387
						S2143.663,932.614,2129.113,932.614z"/>
				</g>
			</g>
			<g>
				<path style="fill:#FFFFFF;" d="M2483.085,1509.932c-43.844,0-79.445-35.601-79.445-79.36c0-43.844,35.601-79.446,79.36-79.446
					c43.844,0,79.446,35.602,79.446,79.361v0.085C2562.446,1474.331,2526.844,1509.932,2483.085,1509.932z M2483.085,1355.814
					c-41.259,0-74.757,33.498-74.757,74.673c0,41.259,33.498,74.756,74.672,74.756c41.26,0,74.757-33.498,74.757-74.672v-0.085
					C2557.757,1389.312,2524.26,1355.814,2483.085,1355.814z"/>
				<path style="fill:#FFFFFF;" d="M2461.151,1470.411c-2.219,0-4.047-1.768-4.107-4l-1.878-70.101
					c-0.061-2.312,1.057-4.447,2.989-5.714c1.933-1.267,4.336-1.441,6.432-0.461l69.247,32.389c2.285,1.068,3.746,3.299,3.813,5.821
					c0.066,2.522-1.275,4.827-3.502,6.015l-61.126,32.587c-2.006,1.068-4.493,0.308-5.56-1.693c-1.069-2.003-0.31-4.493,1.693-5.56
					l58.299-31.08l-63.998-29.932l1.808,67.509c0.06,2.27-1.73,4.158-3.999,4.22
					C2461.225,1470.411,2461.188,1470.411,2461.151,1470.411z"/>
			</g>
		</g>
		<g>
			
				<linearGradient id="SVGID_00000059274649522887075490000011238427454080777884_" gradientUnits="userSpaceOnUse" x1="822.7739" y1="1628.1981" x2="1146.725" y2="1300.8722" gradientTransform="matrix(0.9854 0.1705 -0.1705 0.9854 66.439 -38.0066)">
				<stop  offset="0" style="stop-color:#FF928E"/>
				<stop  offset="1" style="stop-color:#FE7062"/>
			</linearGradient>
			<path style="fill:url(#SVGID_00000059274649522887075490000011238427454080777884_);" d="M1582.373,915.554
				c107.286-163.794,327.261-223.471,463.386-198.635l27.312,63.707c-138.843,22.253-236.461,47.328-309.297,167.892
				c-3.949,6.537-11.483,10.02-19.01,8.73l-155.827-26.721C1582.013,929.339,1578.524,921.43,1582.373,915.554z"/>
			
				<linearGradient id="SVGID_00000075161534909264480450000014523434049608990615_" gradientUnits="userSpaceOnUse" x1="849.5925" y1="1654.7418" x2="1173.5426" y2="1327.4167" gradientTransform="matrix(0.9854 0.1705 -0.1705 0.9854 66.439 -38.0066)">
				<stop  offset="0" style="stop-color:#FF928E"/>
				<stop  offset="1" style="stop-color:#FE7062"/>
			</linearGradient>
			<path style="fill:url(#SVGID_00000075161534909264480450000014523434049608990615_);" d="M2012.917,625.2l187.243,83.112
				c12.848,5.703,13.587,23.661,1.25,30.399l-164.068,89.619c-5.235,2.333-11.24-1.027-11.992-6.708l-25.06-189.488
				C1999.367,625.146,2007.515,620.671,2012.917,625.2z"/>
		</g>
		<g>
			<g>
				
					<rect x="1105.885" y="2808.223" transform="matrix(-1 -1.224647e-16 1.224647e-16 -1 2244.9827 5975.6245)" style="fill:#91B3FA;" width="33.213" height="359.178"/>
				<path style="fill:#91B3FA;" d="M977.042,3174.326h290.898v-19.722c0-1.048-0.849-1.897-1.897-1.897H979.088
					c-1.13,0-2.045,0.916-2.045,2.045V3174.326z"/>
				<path style="fill:#91B3FA;" d="M922.032,2794.974c0,20.877,17.082,37.959,37.959,37.959h312.784
					c20.877,0,37.959-17.082,37.959-37.959v-34.323c0-20.877-17.082-37.959-37.959-37.959H959.991
					c-20.878,0-37.959,17.082-37.959,37.959V2794.974z"/>
			</g>
			<g>
				
					<linearGradient id="SVGID_00000149340017117851711390000009355840044464593290_" gradientUnits="userSpaceOnUse" x1="1388.3188" y1="3034.8667" x2="1329.6884" y2="3150.1733">
					<stop  offset="0" style="stop-color:#09005D"/>
					<stop  offset="1" style="stop-color:#1A0F91"/>
				</linearGradient>
				<path style="fill:url(#SVGID_00000149340017117851711390000009355840044464593290_);" d="M1307.482,3103.771
					c0,0,94.841,68.361,78.373,114.288c0,0-103.769-44.772-116.305-80.039c-12.537-35.267,2.121-50.844,2.121-50.844
					L1307.482,3103.771z"/>
				
					<linearGradient id="SVGID_00000081629845089271888920000001181174501424771233_" gradientUnits="userSpaceOnUse" x1="1276.8287" y1="3080.7537" x2="1335.2354" y2="3080.7537">
					<stop  offset="0" style="stop-color:#FEBBBA"/>
					<stop  offset="1" style="stop-color:#FF928E"/>
				</linearGradient>
				<path style="fill:url(#SVGID_00000081629845089271888920000001181174501424771233_);" d="M1293.23,3046.479l-15.508,44.832
					c-2.34,6.765,0,14.469,6.052,18.293c3.031,1.915,7.173,3.686,12.834,4.969c7.989,1.811,16.236-1.879,20.078-9.114l18.55-34.931
					L1293.23,3046.479z"/>
				
					<linearGradient id="SVGID_00000031179878105039445290000017321559914664323478_" gradientUnits="userSpaceOnUse" x1="1196.0045" y1="2926.2131" x2="1444.2061" y2="2578.3398">
					<stop  offset="0" style="stop-color:#09005D"/>
					<stop  offset="1" style="stop-color:#1A0F91"/>
				</linearGradient>
				<path style="fill:url(#SVGID_00000031179878105039445290000017321559914664323478_);" d="M1142.313,2642.95
					c0,0,194.8,33.761,278.362,110.955c83.562,77.193-76.698,323.428-76.698,323.428s-26.257-0.162-58.077-27.436
					c0,0,95.022-185.191,13.131-239.196c-92.067-60.716-198.168-74.39-198.168-74.39l39.567-87.409L1142.313,2642.95z"/>
				
					<linearGradient id="SVGID_00000151527796804774184300000015501600402801494402_" gradientUnits="userSpaceOnUse" x1="1354.2936" y1="3151.4497" x2="1151.0408" y2="3417.2412">
					<stop  offset="0" style="stop-color:#09005D"/>
					<stop  offset="1" style="stop-color:#1A0F91"/>
				</linearGradient>
				<path style="fill:url(#SVGID_00000151527796804774184300000015501600402801494402_);" d="M1369.376,3192.658
					c-20.86-9.657-79.917-50.99-89.871-52.815c-9.955-1.824-27.222,9.875-27.222,9.875s-4.199,7.554,0.292,20.729
					c13.862,16.772,44.639,48.745,86.014,60.659c30.436,8.764,51.723,0.594,64.982-8.966
					C1396.277,3211.03,1383.268,3199.09,1369.376,3192.658z"/>
				
					<linearGradient id="SVGID_00000073721143672377630680000003559333249854047134_" gradientUnits="userSpaceOnUse" x1="1252.5751" y1="3209.0144" x2="1409.6279" y2="3209.0144">
					<stop  offset="0" style="stop-color:#4F52FF"/>
					<stop  offset="1" style="stop-color:#4042E2"/>
				</linearGradient>
				<path style="fill:url(#SVGID_00000073721143672377630680000003559333249854047134_);" d="M1338.589,3231.106
					c-41.375-11.914-72.152-43.887-86.014-60.659c3.036,8.903,10.035,20.369,24.994,33.815
					c37.096,33.341,107.947,45.36,123.032,43.044c12.089-1.856,10.949-13.014,2.97-25.166
					C1390.313,3231.7,1369.025,3239.87,1338.589,3231.106z"/>
				
					<linearGradient id="SVGID_00000085216847104017152330000017454149184728961182_" gradientUnits="userSpaceOnUse" x1="1234.5938" y1="3134.6541" x2="1289.4098" y2="3134.6541">
					<stop  offset="0" style="stop-color:#FEBBBA"/>
					<stop  offset="1" style="stop-color:#FF928E"/>
				</linearGradient>
				<path style="fill:url(#SVGID_00000085216847104017152330000017454149184728961182_);" d="M1234.594,3120.539
					c0.234,5.747,11.981,25.457,18.846,36.516c3.262,5.255,8.979,8.466,15.164,8.483c3.923,0.01,8.433-0.331,12.528-1.507
					c6.149-1.765,9.6-8.314,7.802-14.453l-13.415-45.807L1234.594,3120.539z"/>
				
					<linearGradient id="SVGID_00000107548583193485758760000003309170603250383491_" gradientUnits="userSpaceOnUse" x1="1106.5426" y1="3099.5627" x2="1120.2231" y2="2634.4277">
					<stop  offset="0" style="stop-color:#09005D"/>
					<stop  offset="1" style="stop-color:#1A0F91"/>
				</linearGradient>
				<path style="fill:url(#SVGID_00000107548583193485758760000003309170603250383491_);" d="M954.799,2584.477
					c0,0-43.262,115.679,0,150.857c43.262,35.178,146.467,74.785,169.521,144.853s62.179,206.24,114.536,254.467
					c0,0,36.787-3.564,50.553-18.221c0,0-29.819-203.286-49.486-255.447c-17.031-45.171-42.125-110.371-90.214-146.813
					c-13.766-10.432-11.368-26.956-4.985-43.005l11.623-29.226L954.799,2584.477z"/>
				
					<linearGradient id="SVGID_00000170262243374049887750000008791674831409260165_" gradientUnits="userSpaceOnUse" x1="1422.0157" y1="1602.5405" x2="1347.7738" y2="2311.2131">
					<stop  offset="0" style="stop-color:#FF928E"/>
					<stop  offset="1" style="stop-color:#FE7062"/>
				</linearGradient>
				<path style="fill:url(#SVGID_00000170262243374049887750000008791674831409260165_);" d="M1405.997,2493.811
					c-72.538,4.373-49.935-111.513-48.628-116.123l-110.094,77.763c0,0,5.829,61.973,97.362,94.481
					c23.158,8.224,44.324,8.588,63.037,4.565C1399.695,2531.227,1401.318,2510.346,1405.997,2493.811z"/>
				
					<linearGradient id="SVGID_00000141423155422160118190000006531726876642575232_" gradientUnits="userSpaceOnUse" x1="1551.817" y1="2172.8154" x2="1497.6714" y2="2525.9368">
					<stop  offset="0" style="stop-color:#FEBBBA"/>
					<stop  offset="1" style="stop-color:#FF928E"/>
				</linearGradient>
				<path style="fill:url(#SVGID_00000141423155422160118190000006531726876642575232_);" d="M1546.256,2458.932
					c-27.031-18.802-57.653,0-57.653,0c-36.142,23.637-62.881,33.691-82.606,34.88c-4.68,16.535-6.302,37.416,1.678,60.687
					c40.489-8.703,69.456-38.006,82.043-53.041c4.531-5.412,12.556-6.353,18.097-1.979c5.629,4.443,11.095,10.529,10.104,16.935
					c-1.954,12.632,12.703,16.647,13.808,12.067c1.105-4.582-5.014-31.739-5.014-31.739s29.315,29.479,40.759,40.806
					c11.444,11.328,25.834,0,25.834,0S1573.287,2477.735,1546.256,2458.932z"/>
				
					<linearGradient id="SVGID_00000078032511782614637590000010716452735070807465_" gradientUnits="userSpaceOnUse" x1="1255.9982" y1="1585.1504" x2="1181.7565" y2="2293.821">
					<stop  offset="0" style="stop-color:#FF928E"/>
					<stop  offset="1" style="stop-color:#FE7062"/>
				</linearGradient>
				<path style="fill:url(#SVGID_00000078032511782614637590000010716452735070807465_);" d="M1067.763,2198.721
					c0,0,105.53-42.253,301.925,119.888c0,0,16.404,33.956-1.492,64.179c-17.896,30.223-188.412,177.488-211.849,259.155
					c0,0-101.587,33.009-206.645-45.266C949.703,2596.676,958.974,2369.388,1067.763,2198.721z"/>
				
					<linearGradient id="SVGID_00000165946727009956050540000001233351780129113497_" gradientUnits="userSpaceOnUse" x1="1219.6398" y1="2220.3364" x2="1346.5099" y2="2220.3364">
					<stop  offset="0" style="stop-color:#FEBBBA"/>
					<stop  offset="1" style="stop-color:#FF928E"/>
				</linearGradient>
				<path style="fill:url(#SVGID_00000165946727009956050540000001233351780129113497_);" d="M1276.384,2161.013l-51.95,62.978
					c-5.158,6.253-6.294,14.951-2.726,22.229c7.21,14.709,24.319,36.123,62.264,33.162c11.287-0.881,21.283-7.692,26.214-17.884
					l36.325-75.091L1276.384,2161.013z"/>
				
					<linearGradient id="SVGID_00000048500799109928562920000012512378958417685182_" gradientUnits="userSpaceOnUse" x1="1063.4167" y1="1564.9736" x2="989.1749" y2="2273.6453">
					<stop  offset="0" style="stop-color:#FF928E"/>
					<stop  offset="1" style="stop-color:#FE7062"/>
				</linearGradient>
				<path style="fill:url(#SVGID_00000048500799109928562920000012512378958417685182_);" d="M986.06,2468.446
					c-12.251-49.893,111.839-161.125,111.839-161.125l-30.136-108.6c0,0-267.95,178.377-199.666,321.823
					c9.789,20.563,22.79,34.969,37.864,44.601C927.537,2507.066,961.921,2480.431,986.06,2468.446z"/>
				
					<linearGradient id="SVGID_00000098913697081647214340000002067609981295208089_" gradientUnits="userSpaceOnUse" x1="1001.5912" y1="2181.9656" x2="1025.2136" y2="2296.7031">
					<stop  offset="0" style="stop-color:#E1473D"/>
					<stop  offset="1" style="stop-color:#E9605A"/>
				</linearGradient>
				<path style="fill:url(#SVGID_00000098913697081647214340000002067609981295208089_);" d="M985.972,2461.181
					c-1.317,0-2.515-0.893-2.844-2.233c-12.528-51.011,107.611-159.413,112.73-164.005c1.202-1.076,3.054-0.981,4.141,0.225
					c1.08,1.206,0.977,3.061-0.225,4.142c-1.229,1.099-122.647,110.619-110.951,158.241c0.385,1.573-0.576,3.16-2.149,3.546
					C986.442,2461.155,986.205,2461.181,985.972,2461.181z"/>
				
					<linearGradient id="SVGID_00000161623577985763446810000002546591224749492648_" gradientUnits="userSpaceOnUse" x1="1133.1234" y1="2504.8381" x2="647.3968" y2="3348.8879">
					<stop  offset="0" style="stop-color:#FEBBBA"/>
					<stop  offset="1" style="stop-color:#FF928E"/>
				</linearGradient>
				<path style="fill:url(#SVGID_00000161623577985763446810000002546591224749492648_);" d="M1174.01,2464.152
					c0,0-147.124,57.121-183.035,14.156c-2.435-2.914-4.023-6.231-4.914-9.861c-24.139,11.986-58.524,38.62-80.1,96.698
					c77.379,49.445,209.64-27.507,245.403-50.192c5.883-3.732,12.941-5.041,19.762-3.626c13.794,2.86,37.622,7.066,50.473,5.086
					c18.801-2.896,45.805,63.422,76.277,42.966C1297.876,2559.378,1271.783,2444.103,1174.01,2464.152z"/>
				<g>
					
						<linearGradient id="SVGID_00000052819386309738009800000016836859693481870727_" gradientUnits="userSpaceOnUse" x1="11780.2373" y1="2105.7576" x2="11773.1748" y2="2312.9148" gradientTransform="matrix(0.8667 0.4989 -0.4989 0.8667 -8374.8066 -4673.8311)">
						<stop  offset="0" style="stop-color:#FEBBBA"/>
						<stop  offset="1" style="stop-color:#FF928E"/>
					</linearGradient>
					<path style="fill:url(#SVGID_00000052819386309738009800000016836859693481870727_);" d="M1401.843,2104.74
						c0,0-7.63,67.979-22.464,97.424c-14.835,29.445-19.344,51.496-55.64,38.251c-36.296-13.246-54.625-45.677-53.32-82.763
						c0,0,1.621-57.37,17.236-72.257C1303.27,2070.506,1401.843,2104.74,1401.843,2104.74z"/>
					
						<linearGradient id="SVGID_00000052813472745436414680000015250070186149126806_" gradientUnits="userSpaceOnUse" x1="11750.4912" y1="958.2776" x2="11891.8203" y2="1140.2384" gradientTransform="matrix(0.8667 0.4989 -0.4989 0.8667 -8374.8066 -4673.8311)">
						<stop  offset="0" style="stop-color:#09005D"/>
						<stop  offset="1" style="stop-color:#1A0F91"/>
					</linearGradient>
					<path style="fill:url(#SVGID_00000052813472745436414680000015250070186149126806_);" d="M1293.454,2143.708l4.17,2.401
						c0,0,3.107-45.137,21.769-42.637c18.662,2.499,85.488,24.731,110.608,10.939c24.216-13.297,28.335-46.109,15.994-63.059
						c-0.78-1.072-2.303-1.291-3.426-0.583l-2.873,1.809c-1.967,1.24-4.443-0.544-3.889-2.803l0,0
						c0.526-2.142-1.718-3.968-3.663-2.927c-7.603,4.072-24.238,8.234-55.972-2.985c-45.027-15.92-81.419-14.937-98.274,12.812
						c-1.068,1.758-3.538,1.644-4.527-0.16c-1.951-3.561-6.264-7.189-15.802-5.485c-16.586,2.964-26.046,29.974-13.09,64.132
						c0.616,1.623-0.44,3.436-2.173,3.531c-6.106,0.335-16.687,3.403-4.81,22.45c12.15,19.485,23.125,24.441,27.621,25.694
						c1.21,0.337,2.473-0.215,3.031-1.341l12.811-25.816c0.663-1.335,2.314-1.834,3.605-1.091L1293.454,2143.708z"/>
					
						<linearGradient id="SVGID_00000036954748424375040100000004014077294486341769_" gradientUnits="userSpaceOnUse" x1="11729.1201" y1="2104.0278" x2="11722.0576" y2="2311.188" gradientTransform="matrix(0.8667 0.4989 -0.4989 0.8667 -8374.8066 -4673.8311)">
						<stop  offset="0" style="stop-color:#FEBBBA"/>
						<stop  offset="1" style="stop-color:#FF928E"/>
					</linearGradient>
					<path style="fill:url(#SVGID_00000036954748424375040100000004014077294486341769_);" d="M1291.476,2149.513
						c0,0,10.962-39.919-10.21-39.145c-21.172,0.773-14.318,43.554-2.551,52.059L1291.476,2149.513z"/>
				</g>
			</g>
			<g>
				
					<linearGradient id="SVGID_00000127762541851330048670000006721764613424946566_" gradientUnits="userSpaceOnUse" x1="12378.582" y1="3165.1069" x2="12129.8721" y2="3233.2717" gradientTransform="matrix(-0.9988 -0.0494 -0.0494 0.9988 13717.0957 -55.0327)">
					<stop  offset="0" style="stop-color:#09005D"/>
					<stop  offset="1" style="stop-color:#1A0F91"/>
				</linearGradient>
				<path style="fill:url(#SVGID_00000127762541851330048670000006721764613424946566_);" d="M1249.383,2576.792
					c0.236,0.011,0.472,0.018,0.71,0.016l308.686-0.337c7.631-0.006,13.81-6.199,13.802-13.83
					c-0.008-7.634-6.222-13.939-13.833-13.802l-308.686,0.337c-7.631,0.006-13.81,6.199-13.802,13.83
					C1236.269,2570.399,1242.083,2576.431,1249.383,2576.792z"/>
				
					<linearGradient id="SVGID_00000041283135083817807310000013915409439101221018_" gradientUnits="userSpaceOnUse" x1="12141.998" y1="2334.1055" x2="11965.5273" y2="2520.6243" gradientTransform="matrix(-1 0 0 1 13675.626 0)">
					<stop  offset="0" style="stop-color:#09005D"/>
					<stop  offset="1" style="stop-color:#1A0F91"/>
				</linearGradient>
				<path style="fill:url(#SVGID_00000041283135083817807310000013915409439101221018_);" d="M1836.274,2296.524h-257.076
					c-18.964,0-36.226,10.944-44.315,28.097l-118.846,252.006h319.477c12.221,0,23.202-7.467,27.693-18.833l92.16-233.194
					C1860.693,2311.125,1850.762,2296.524,1836.274,2296.524z"/>
				
					<linearGradient id="SVGID_00000053518149215089643660000012562213221822945435_" gradientUnits="userSpaceOnUse" x1="12035.3135" y1="2380.5474" x2="11955.2422" y2="2501.1255" gradientTransform="matrix(-1 0 0 1 13675.626 0)">
					<stop  offset="0" style="stop-color:#53D8FF"/>
					<stop  offset="1" style="stop-color:#3840F7"/>
				</linearGradient>
				<path style="fill:url(#SVGID_00000053518149215089643660000012562213221822945435_);" d="M1655.162,2425.735
					c-5.571,17.308-1.455,34.117,9.192,37.544c10.648,3.427,23.795-7.825,29.366-25.133c5.571-17.308,1.455-34.117-9.192-37.544
					C1673.88,2397.174,1660.733,2408.427,1655.162,2425.735z"/>
			</g>
			<g>
				<g>
					<path style="fill:#7D97F4;" d="M1794.597,3238.865c1.71,0,3.448-0.331,5.12-1.026c6.581-2.741,9.621-10.128,6.79-16.499
						l-272.05-612.273c-2.829-6.369-10.455-9.31-17.042-6.573c-6.581,2.741-9.621,10.128-6.79,16.499l272.05,612.273
						C1784.786,3236.017,1789.57,3238.865,1794.597,3238.865z"/>
					<path style="fill:#7D97F4;" d="M1488.12,3238.865c5.027,0,9.811-2.845,11.922-7.599l272.05-612.273
						c2.831-6.371-0.209-13.758-6.79-16.499c-6.577-2.741-14.209,0.2-17.042,6.573l-272.05,612.273
						c-2.831,6.371,0.209,13.758,6.79,16.499C1484.671,3238.533,1486.41,3238.865,1488.12,3238.865z"/>
					<path style="fill:#7D97F4;" d="M952.484,3238.865c1.71,0,3.448-0.331,5.12-1.026c6.581-2.741,9.621-10.128,6.79-16.499
						l-272.05-612.273c-2.831-6.369-10.453-9.31-17.042-6.573c-6.581,2.741-9.621,10.128-6.79,16.499l272.05,612.273
						C942.673,3236.017,947.457,3238.865,952.484,3238.865z"/>
					<path style="fill:#7D97F4;" d="M646.01,3238.865c5.027,0,9.811-2.845,11.922-7.599l272.05-612.273
						c2.831-6.371-0.209-13.758-6.79-16.499c-6.576-2.741-14.209,0.2-17.042,6.573L634.1,3221.34
						c-2.831,6.371,0.209,13.758,6.79,16.499C642.56,3238.533,644.3,3238.865,646.01,3238.865z"/>
				</g>
				<path style="fill:#7D97F4;" d="M614.1,2590.164c-0.694-4.016,0.251-8.169,2.576-11.324c2.325-3.155,5.787-4.983,9.441-4.983
					h1237.631c4.805,0,9.278,2.741,11.867,7.273c2.589,4.532,2.936,10.228,0.921,15.111l-13.412,32.498
					c-3.071,7.442-9.725,12.207-17.048,12.207H634.609c-6.811,0-12.666-5.407-13.96-12.895L614.1,2590.164z"/>
			</g>
		</g>
	</g>
</g>
</svg>
