<svg xmlns="http://www.w3.org/2000/svg" width="13.716" height="7.09" viewBox="0 0 13.716 7.09">
  <path id="chevron-up-solid" d="M38.092,102.856a1.055,1.055,0,0,0,1.386,0l5.877-5.317a.829.829,0,0,0,0-1.254,1.055,1.055,0,0,0-1.386,0l-5.185,4.691L33.6,96.287a1.055,1.055,0,0,0-1.386,0,.829.829,0,0,0,0,1.254l5.877,5.317Z" transform="translate(-31.925 -96.025)" fill="#9793dd"/>
</svg>
