<svg xmlns="http://www.w3.org/2000/svg" width="13.528" height="202.639" viewBox="0 0 13.528 202.639">
  <g id="Group_2671" data-name="Group 2671" transform="translate(-1468.629 -1095.176)">
    <path id="Path_3687" data-name="Path 3687" d="M464.2,371.4a1.984,1.984,0,1,1,1.98,1.86A1.922,1.922,0,0,1,464.2,371.4Z" transform="translate(1009.212 728.916)" fill="#1a1a3c" stroke="#1a1a3c" stroke-width="6.58"/>
    <path id="Path_3688" data-name="Path 3688" d="M468.16,424.81a1.985,1.985,0,1,1-1.98-1.85A1.923,1.923,0,0,1,468.16,424.81Z" transform="translate(1192.416 727.46) rotate(21)" fill="#1a1a3c" stroke="#1a1a3c" stroke-width="6.58"/>
    <path id="Path_3689" data-name="Path 3689" d="M468.16,398.11a1.984,1.984,0,1,1-1.98-1.86A1.922,1.922,0,0,1,468.16,398.11Z" transform="translate(1009.212 797.313)" fill="#1a1a3c" stroke="#1a1a3c" stroke-width="6.58"/>
    <path id="Path_3690" data-name="Path 3690" d="M468.16,380.3a1.985,1.985,0,1,1-1.98-1.85A1.923,1.923,0,0,1,468.16,380.3Z" transform="translate(1009.212 751.715)" fill="#1a1a3c" stroke="#1a1a3c" stroke-width="6.58"/>
    <path id="Path_3691" data-name="Path 3691" d="M468.16,407.01a1.984,1.984,0,1,1-1.98-1.86A1.93,1.93,0,0,1,468.16,407.01Z" transform="translate(1009.212 820.113)" fill="#1a1a3c" stroke="#1a1a3c" stroke-width="6.58"/>
    <path id="Path_3693" data-name="Path 3693" d="M468.16,407.01a1.984,1.984,0,1,1-1.98-1.86,2.162,2.162,0,0,1,1.7.9A1.531,1.531,0,0,1,468.16,407.01Z" transform="translate(1009.212 851.822)" fill="#1a1a3c" stroke="#1a1a3c" stroke-width="6.58"/>
    <path id="Path_3692" data-name="Path 3692" d="M468.16,389.21a1.984,1.984,0,1,1-1.98-1.86A1.922,1.922,0,0,1,468.16,389.21Z" transform="translate(1009.212 774.514)" fill="#1a1a3c" stroke="#1a1a3c" stroke-width="6.58"/>
  </g>
</svg>
