<svg xmlns="http://www.w3.org/2000/svg" width="225.566" height="509.212" viewBox="0 0 225.566 509.212">
  <g id="Group_2686" data-name="Group 2686" transform="translate(-1191.615 -983.976)">
    <path id="Path_3716" data-name="Path 3716" d="M293.1,356.005a38.917,38.917,0,0,1,38.9,38.89V815.022" transform="translate(1081.891 674.875)" fill="none" stroke="#1a1a3c" stroke-linecap="round" stroke-linejoin="round" stroke-width="6.58"/>
    <g id="Group_2680" data-name="Group 2680" transform="translate(1191.615 983.976)">
      <text id="_" data-name="”" transform="translate(136.385 108)" fill="#1a1a3c" font-size="100" font-family="SegoeUI, Segoe UI"><tspan x="0" y="0">”</tspan></text>
      <g id="Group_2331" data-name="Group 2331" transform="translate(0 39.328)">
        <g id="Group_2326" data-name="Group 2326">
          <path id="Path_3070" data-name="Path 3070" d="M96.924,364.833a4.867,4.867,0,1,1-4.862-5.093A4.994,4.994,0,0,1,96.924,364.833Z" transform="translate(-63.868 -359.74)" fill="#1a1a3c"/>
          <path id="Path_3071" data-name="Path 3071" d="M105.994,364.833a4.867,4.867,0,1,1-4.862-5.093A4.994,4.994,0,0,1,105.994,364.833Z" transform="translate(-49.606 -359.74)" fill="#1a1a3c"/>
          <path id="Path_3072" data-name="Path 3072" d="M133.22,364.833a4.879,4.879,0,1,1-4.888-5.093A5,5,0,0,1,133.22,364.833Z" transform="translate(-6.835 -359.74)" fill="#1a1a3c"/>
          <path id="Path_3073" data-name="Path 3073" d="M124.15,364.833a4.879,4.879,0,1,1-4.862-5.093A4.994,4.994,0,0,1,124.15,364.833Z" transform="translate(-21.097 -359.74)" fill="#1a1a3c"/>
          <path id="Path_3074" data-name="Path 3074" d="M87.854,364.833a4.867,4.867,0,1,1-4.862-5.093A4.994,4.994,0,0,1,87.854,364.833Z" transform="translate(-78.13 -359.74)" fill="#1a1a3c"/>
          <path id="Path_3075" data-name="Path 3075" d="M115.064,364.833a4.867,4.867,0,1,1-4.862-5.093A4.994,4.994,0,0,1,115.064,364.833Z" transform="translate(-35.344 -359.74)" fill="#1a1a3c"/>
        </g>
      </g>
    </g>
  </g>
</svg>
