<svg xmlns="http://www.w3.org/2000/svg" width="1358.922" height="119.079" viewBox="0 0 1358.922 119.079">
  <path id="Path_3679" data-name="Path 3679" d="M1696.036,435.287V474.2c0,8.475-23.847,15.354-53.216,15.354H1156.075l-136.21,58.232L883.644,489.555H396.909c-29.457,0-53.215-6.879-53.215-15.354V435.287" transform="translate(-340.404 -431.997)" fill="rgba(0,0,0,0)" stroke="#1a1a3c" stroke-linecap="round" stroke-linejoin="round" stroke-width="6.58"/>
</svg>
