<?xml version="1.0" encoding="UTF-8"?>
<svg id="Layer_2" data-name="Layer 2" xmlns="http://www.w3.org/2000/svg" viewBox="0 0 512.15 512.16">
  <defs>
    <style>
      .cls-1 {
        fill: #09ad95;
        stroke-width: 0px;
      }
    </style>
  </defs>
  <g id="Layer_1-2" data-name="Layer 1">
    <g>
      <path class="cls-1" d="M487.56,146.56c-20.9-44.3-54-81.5-95.7-107.6C333.86,2.76,265.16-8.74,198.56,6.66c-66.6,15.3-123.3,55.7-159.5,113.7C2.76,178.36-8.74,246.96,6.66,313.66c15.4,66.6,55.8,123.3,113.7,159.5,40.8,25.5,87.6,39,135.5,39h3.1c47.7-.6,94.1-14.4,134.3-39.8,11.7-7.4,15.1-22.8,7.7-34.5s-22.8-15.1-34.5-7.7c-32.3,20.5-69.7,31.6-108.1,32.1-39.4.5-77.9-10.4-111.5-31.3-46.7-29.2-79.2-74.8-91.5-128.4s-3.1-108.8,26.1-155.5c60.2-96.3,187.6-125.7,283.9-65.5,33.6,21,60.2,50.9,77,86.5,16.4,34.7,22.8,73.2,18.5,111.2-1.5,13.7,8.3,26.1,22.1,27.6,13.7,1.5,26.1-8.3,27.6-22.1,5.3-47.3-2.7-95.1-23-138.2h0Z"/>
      <path class="cls-1" d="M338.76,169.26l-120.6,120.6-44.7-44.7c-9.8-9.8-25.6-9.8-35.4,0s-9.8,25.6,0,35.4l62.4,62.4c4.9,4.9,11.3,7.3,17.7,7.3s12.8-2.4,17.7-7.3l138.2-138.3c9.8-9.8,9.8-25.6,0-35.4-9.8-9.7-25.6-9.7-35.3,0h0Z"/>
    </g>
  </g>
</svg>