<?xml version="1.0" encoding="UTF-8"?>
<svg id="Layer_2" data-name="Layer 2" xmlns="http://www.w3.org/2000/svg" viewBox="0 0 321.55 369.17">
  <defs>
    <style>
      .cls-1 {
        fill: #f69583;
      }

      .cls-1, .cls-2, .cls-3, .cls-4, .cls-5, .cls-6, .cls-7, .cls-8, .cls-9, .cls-10, .cls-11, .cls-12, .cls-13, .cls-14 {
        stroke-width: 0px;
      }

      .cls-2 {
        fill: #31a7fb;
      }

      .cls-3 {
        fill: #64b9fc;
      }

      .cls-4 {
        fill: #b9acac;
      }

      .cls-5 {
        fill: #fdc83a;
      }

      .cls-6 {
        fill: #fdb0a0;
      }

      .cls-8 {
        fill: #f3eae6;
      }

      .cls-9 {
        fill: #e0d3ce;
      }

      .cls-10 {
        fill: #f98824;
      }

      .cls-11 {
        fill: #fddd45;
      }

      .cls-12 {
        fill: #ffcec0;
      }

      .cls-13 {
        fill: #fcb72d;
      }

      .cls-14 {
        fill: #fb9927;
      }
    </style>
  </defs>
  <g id="Layer_1-2" data-name="Layer 1">
    <g>
      <path class="cls-9" d="M59.95,190.36v68.3H5.41v91.4c0,1.99,1.61,3.61,3.59,3.61h109.03v-163.3h-58.08Z"/>
      <path class="cls-4" d="M90.45,190.36h27.58v163.3h-27.58v-163.3Z"/>
      <path class="cls-3" d="M286.54,288.86c-27.97-70.59-80.96-74.35-86.45-76h-30.11c-5.49,1.66-58.48,5.41-86.45,76l-29.61,74.9h69.56l61.48-3.61,61.48,3.61h69.7l-29.61-74.9h0Z"/>
      <path class="cls-2" d="M316.15,363.76h-30.57s-1.96-5.43-3.94-10.44l-25.48-64.47c-27.58-69.59-79.47-74.23-86.19-75.93v-.07h30.12c5.5,1.65,58.48,5.42,86.46,76l25.48,64.47,4.13,10.44h0Z"/>
      <path class="cls-1" d="M234.46,224.77c-17.25-9.75-31.66-11.1-34.38-11.92h-30.11c-2.72.82-17.13,2.16-34.38,11.92,4.06,10.26,17.2,34.99,49.49,34.99,32.29,0,45.35-24.73,49.38-34.99h0Z"/>
      <path class="cls-1" d="M169.98,178.96h30.11v45.19h-30.11v-45.19Z"/>
      <path class="cls-14" d="M132.96,222.9c-1.28-.91-3.03-.8-4.18.28l-22.69,21.04c-1.29,1.2-1.44,3.19-.33,4.56,5.06,6.25,17.72,24.95,17.72,55.79v59.19h61.48v-103.99l-52-36.86h0ZM236.96,222.9c1.28-.91,3.03-.8,4.18.28l22.69,21.04c1.29,1.2,1.44,3.19.33,4.56-5.06,6.25-17.72,24.95-17.72,55.79v59.19h-61.48v-103.99l52-36.86Z"/>
      <path class="cls-10" d="M264.17,248.78c-5.06,6.25-17.72,24.95-17.72,55.8v59.18h-17.5v-64.65c0-42.11,23.89-65.09,23.89-65.09l11.01,10.2c1.28,1.2,1.43,3.19.33,4.56h0Z"/>
      <path class="cls-3" d="M139.57,224.62l45.52,35.15-43.21,6.57c-1.68.26-3.23-.95-3.41-2.65l-3.68-36.39c-.26-2.61,2.7-4.27,4.77-2.67h0Z"/>
      <path class="cls-3" d="M230.49,224.62l-45.52,35.15,43.21,6.57c1.68.26,3.23-.95,3.41-2.65l3.68-36.39c.26-2.61-2.7-4.27-4.77-2.67h0Z"/>
      <ellipse class="cls-1" cx="247.97" cy="131.14" rx="19.54" ry="19.17"/>
      <ellipse class="cls-6" cx="122.1" cy="131.14" rx="19.54" ry="19.17"/>
      <path class="cls-12" d="M185.03,204.12c-32.32,0-58.52-26.2-58.52-58.52v-36.96h117.05v36.96c0,32.32-26.2,58.52-58.52,58.52Z"/>
      <path class="cls-6" d="M243.56,108.63v36.7c0,32.47-26.21,58.79-58.53,58.79-3.75,0-7.49-.36-11.17-1.08,26.97-5.23,47.34-29.08,47.34-57.71v-36.7h22.36Z"/>
      <path class="cls-5" d="M114.98,104.62h140.11s0-26.43,0-26.43c0-38.33-31.07-69.4-69.4-69.4h-1.31c-38.33,0-69.4,31.07-69.4,69.4v26.43s0,0,0,0Z"/>
      <path class="cls-13" d="M255.09,78.34c0-38.41-31-69.55-69.24-69.55h-1.62c-2.64,0-5.27.15-7.89.45,28.78,10.43,49.34,37.92,49.34,70.19v25.19h29.42s0-26.28,0-26.28Z"/>
      <path class="cls-14" d="M234.37,90.8c-5.35-4.25-12.55-9.81-18.47-14.37-6.78-5.21-10.78-13.51-10.78-22.33V13.84c0-4.65-3.79-8.43-8.46-8.43h-23.25c-4.67,0-8.46,3.77-8.46,8.43v40.27c0,8.83-4,17.12-10.78,22.33-5.92,4.55-13.12,10.12-18.47,14.37h98.67Z"/>
      <path class="cls-10" d="M234.37,90.8h-21.65c-5.35-4.25-12.55-9.81-18.47-14.37-6.78-5.21-10.78-13.5-10.78-22.33V13.84c0-4.42-3.41-8.04-7.75-8.39.23-.03.47-.03.7-.03h20.23c4.67,0,8.46,3.78,8.46,8.43v40.26c0,8.83,4,17.12,10.78,22.33,5.92,4.56,13.12,10.12,18.47,14.37h0Z"/>
      <path class="cls-11" d="M258.18,119.09H111.88c-8.2,0-14.86-6.65-14.86-14.85v-.07c0-8.2,6.65-14.86,14.86-14.86h146.31c8.2,0,14.86,6.65,14.86,14.85v.07c0,8.2-6.65,14.86-14.86,14.86h0Z"/>
      <path class="cls-5" d="M273.04,104.19c0,4.11-1.67,7.83-4.37,10.53-2.81,2.8-6.61,4.36-10.57,4.36h-29c3.96,0,7.77-1.56,10.57-4.36,2.7-2.7,4.37-6.42,4.37-10.53,0-8.21-6.69-14.88-14.95-14.88h29c8.26,0,14.94,6.67,14.95,14.88h0Z"/>
      <path class="cls-8" d="M123.48,316.36h61.61v20.67h-61.61v-20.67Z"/>
      <path class="cls-8" d="M184.96,316.36h61.61v20.67h-61.61v-20.67Z"/>
      <path class="cls-7" d="M53.92,369.17c-.66,0-1.33-.12-1.99-.38-2.78-1.1-4.14-4.24-3.04-7.02l1.07-2.71H9c-4.96,0-9-4.04-9-9.01v-32.44c0-2.99,2.42-5.41,5.41-5.41s5.41,2.42,5.41,5.41v30.64h43.42l24.26-61.38c6.11-15.41,13.87-28.92,23.09-40.14,1.89-2.31,5.3-2.65,7.61-.75,2.31,1.89,2.65,5.3.75,7.61-8.5,10.36-15.7,22.9-21.39,37.27l-29.61,74.9c-.84,2.13-2.88,3.42-5.03,3.42ZM316.15,369.17c-2.15,0-4.19-1.3-5.03-3.42l-29.61-74.9c-5.65-14.25-12.77-26.7-21.19-37.01-1.89-2.31-1.54-5.72.77-7.61,2.32-1.89,5.72-1.54,7.61.77,9.11,11.17,16.81,24.59,22.86,39.87l29.61,74.91c1.1,2.78-.26,5.92-3.04,7.02-.65.26-1.33.38-1.99.38ZM123.48,369.17c-2.99,0-5.41-2.42-5.41-5.41v-26.73c0-2.99,2.42-5.41,5.41-5.41s5.41,2.42,5.41,5.41v26.73c0,2.99-2.42,5.41-5.41,5.41ZM5.41,299.11c-2.99,0-5.41-2.42-5.41-5.41v-35.04c0-2.99,2.42-5.41,5.41-5.41h49.13v-62.9c0-2.99,2.42-5.41,5.41-5.41h58.08c2.99,0,5.41,2.42,5.41,5.41v42.03c0,2.99-2.42,5.41-5.41,5.41s-5.41-2.42-5.41-5.41v-36.62h-47.26v62.9c0,2.99-2.42,5.41-5.41,5.41H10.82v29.64c0,2.99-2.42,5.41-5.41,5.41ZM137.05,229.38c-1.92,0-3.77-1.02-4.76-2.82-1.43-2.62-.46-5.91,2.17-7.33,12.81-6.97,24.1-9.59,30.12-10.78v-4.96c0-2.99,2.42-5.41,5.41-5.41s5.41,2.42,5.41,5.41v9.12c0,.17,0,.34,0,.51v8.23c0,2.99-2.42,5.41-5.41,5.41s-5.41-2.42-5.41-5.41v-1.86c-5.85,1.26-14.77,3.7-24.95,9.24-.82.45-1.71.66-2.58.66ZM233.01,229.38c-.87,0-1.76-.21-2.58-.66-10.17-5.53-19.09-7.97-24.94-9.24v1.86c0,2.99-2.42,5.41-5.41,5.41s-5.41-2.42-5.41-5.41v-8.34c0-.1,0-.2,0-.3v-9.23c0-2.99,2.42-5.41,5.41-5.41s5.41,2.42,5.41,5.41v4.96c6.02,1.19,17.3,3.81,30.11,10.78,2.62,1.43,3.59,4.71,2.17,7.33-.98,1.8-2.84,2.82-4.76,2.82Z"/>
      <path class="cls-7" d="M246.45,369.17c-2.99,0-5.41-2.42-5.41-5.41v-26.73c0-2.99,2.42-5.41,5.41-5.41s5.41,2.42,5.41,5.41v26.73c0,2.99-2.42,5.41-5.41,5.41ZM184.96,369.17c-2.99,0-5.41-2.42-5.41-5.41v-104c0-2.99,2.42-5.41,5.41-5.41s5.41,2.42,5.41,5.41v104c0,2.99-2.42,5.41-5.41,5.41ZM246.45,321.77c-2.99,0-5.41-2.42-5.41-5.41v-11.79c0-1.79.04-3.57.13-5.45.14-2.98,2.67-5.3,5.66-5.15,2.98.14,5.29,2.67,5.15,5.66-.08,1.71-.12,3.32-.12,4.93v11.79c0,2.99-2.42,5.41-5.41,5.41ZM215.77,321.77c-2.99,0-5.41-2.42-5.41-5.41v-50.38c0-2.99,2.42-5.41,5.41-5.41s5.41,2.42,5.41,5.41v50.38c0,2.99-2.42,5.41-5.41,5.41ZM154.3,321.77c-2.99,0-5.41-2.42-5.41-5.41v-50.38c0-2.99,2.42-5.41,5.41-5.41s5.41,2.42,5.41,5.41v50.38c0,2.99-2.42,5.41-5.41,5.41ZM123.48,321.77c-2.99,0-5.41-2.42-5.41-5.41v-11.79c0-28.89-11.55-46.26-16.51-52.39-2.89-3.56-2.51-8.8.86-11.93l22.69-21.04c3.01-2.8,7.63-3.1,10.99-.72l2.64,1.87c2.44,1.73,3.01,5.1,1.28,7.54-1.73,2.44-5.1,3.01-7.54,1.28l-1.25-.89-20.06,18.61c6.15,8.12,17.73,27.42,17.73,57.67v11.79c0,2.99-2.42,5.41-5.41,5.41ZM250.67,280.62c-.52,0-1.05-.08-1.57-.24-2.86-.87-4.47-3.89-3.6-6.75,3.94-12.96,9.61-21.9,13.28-26.74l-20.06-18.61-1.16.82c-2.44,1.73-5.81,1.15-7.54-1.28-1.73-2.44-1.15-5.81,1.28-7.54l2.55-1.81c3.35-2.38,7.98-2.07,10.99.73l22.69,21.04c3.37,3.12,3.75,8.36.86,11.93-3.02,3.73-8.67,11.88-12.53,24.6-.71,2.33-2.85,3.84-5.17,3.84Z"/>
      <path class="cls-7" d="M141.44,271.78c-1.85,0-3.67-.61-5.15-1.76-1.81-1.4-2.98-3.51-3.21-5.79l-3.68-36.39c-.34-3.35,1.34-6.56,4.28-8.19,2.93-1.62,6.53-1.35,9.18.69l45.52,35.15c1.71,1.32,2.47,3.54,1.93,5.64s-2.28,3.67-4.42,3.99l-43.21,6.57c-.41.06-.83.09-1.25.09ZM140.74,232.36l2.85,28.25,28.18-4.28-31.04-23.96ZM136.26,228.9s0,0,0,0c0,0,0,0,0,0Z"/>
      <path class="cls-7" d="M228.61,271.78c-.42,0-.83-.03-1.25-.09l-43.21-6.57c-2.14-.33-3.88-1.9-4.42-3.99s.22-4.31,1.93-5.64l45.52-35.15c2.65-2.05,6.25-2.32,9.18-.7,2.94,1.63,4.62,4.84,4.28,8.19l-3.68,36.39c-.23,2.28-1.4,4.39-3.21,5.79-1.47,1.14-3.3,1.76-5.14,1.76ZM198.28,256.32l28.18,4.28,2.85-28.25-31.04,23.96ZM233.79,228.9s0,0,0,0c0,0,0,0,0,0ZM230.49,224.62h0,0ZM247.97,155.72c-1.99,0-3.95-.23-5.83-.68-2.9-.7-4.69-3.62-3.99-6.53.7-2.9,3.62-4.69,6.53-3.99,1.05.25,2.16.38,3.29.38,7.79,0,14.13-6.18,14.13-13.77,0-3.35-1.25-6.58-3.52-9.08-2.01-2.21-1.84-5.63.38-7.64,2.21-2,5.63-1.84,7.64.38,4.07,4.5,6.32,10.3,6.32,16.34,0,13.56-11.19,24.59-24.95,24.59ZM122.09,155.72c-13.76,0-24.95-11.03-24.95-24.59,0-6.04,2.24-11.85,6.32-16.34,2.01-2.21,5.43-2.38,7.64-.38,2.21,2.01,2.38,5.43.38,7.64-2.27,2.5-3.52,5.73-3.52,9.08,0,7.59,6.34,13.77,14.13,13.77,1.14,0,2.25-.13,3.3-.38,2.9-.7,5.83,1.08,6.53,3.99.7,2.9-1.08,5.82-3.99,6.53-1.88.45-3.85.68-5.84.68Z"/>
      <path class="cls-7" d="M185.03,209.53c-35.25,0-63.93-28.68-63.93-63.93v-26.51c0-2.99,2.42-5.41,5.41-5.41s5.41,2.42,5.41,5.41v26.51c0,29.29,23.83,53.12,53.12,53.12s53.12-23.83,53.12-53.11v-26.51c0-2.99,2.42-5.41,5.41-5.41s5.41,2.42,5.41,5.41v26.51c0,35.25-28.68,63.93-63.93,63.93ZM255.09,94.72c-2.99,0-5.41-2.42-5.41-5.41v-11.13c0-28.44-19.08-53.74-46.39-61.53-2.87-.82-4.54-3.81-3.72-6.68.82-2.87,3.81-4.54,6.68-3.72,31.93,9.11,54.24,38.69,54.24,71.93v11.13c0,2.99-2.42,5.41-5.41,5.41ZM114.98,94.72c-2.99,0-5.41-2.42-5.41-5.41v-11.12c0-33.25,22.3-62.83,54.24-71.94,2.87-.82,5.86.85,6.68,3.72.82,2.87-.85,5.86-3.72,6.68-27.31,7.79-46.39,33.1-46.39,61.54v11.12c0,2.99-2.42,5.41-5.41,5.41Z"/>
      <path class="cls-7" d="M185.09,342.44h-61.61c-2.99,0-5.41-2.42-5.41-5.41v-20.67c0-2.99,2.42-5.41,5.41-5.41h61.61c2.99,0,5.41,2.42,5.41,5.41v20.67c0,2.99-2.42,5.41-5.41,5.41ZM128.89,331.63h50.79v-9.86h-50.79v9.86ZM185.03,180.1h0c-7.14,0-13.84-2.79-18.88-7.86-2.11-2.12-2.1-5.54.02-7.65s5.54-2.1,7.65.02c3,3.01,6.98,4.67,11.22,4.67s8.22-1.66,11.22-4.67c2.11-2.12,5.53-2.13,7.65-.02,2.12,2.11,2.12,5.53.02,7.65-5.04,5.07-11.75,7.86-18.89,7.86ZM185.03,156.42c-2.99,0-5.41-2.42-5.41-5.41v-8.05c0-2.99,2.42-5.41,5.41-5.41s5.41,2.42,5.41,5.41v8.05c0,2.99-2.42,5.41-5.41,5.41ZM157.3,143.31c-.07,0-.14,0-.21,0-2.98-.11-5.31-2.62-5.2-5.61l.06-1.53c.11-2.98,2.6-5.33,5.61-5.2,2.98.11,5.31,2.62,5.2,5.61l-.06,1.53c-.11,2.91-2.51,5.2-5.4,5.2ZM212.76,143.31c-2.89,0-5.29-2.29-5.4-5.21l-.06-1.53c-.11-2.98,2.22-5.49,5.2-5.61,3-.11,5.49,2.22,5.61,5.2l.06,1.53c.11,2.98-2.22,5.49-5.2,5.61-.07,0-.14,0-.21,0ZM111.84,124.5c-11.15,0-20.23-9.1-20.23-20.3s9.07-20.3,20.23-20.3h23.86c4.3-3.37,9.72-7.58,15.16-11.75,5.42-4.17,8.67-10.92,8.67-18.05V13.84c0-7.63,6.22-13.84,13.87-13.84h23.25c7.65,0,13.87,6.21,13.87,13.84v40.27c0,7.12,3.24,13.87,8.67,18.04,4.17,3.21,10.1,7.78,15.16,11.75h23.86c11.16,0,20.23,9.1,20.23,20.3s-9.07,20.3-20.23,20.3h-88.3c-2.99,0-5.41-2.42-5.41-5.41s2.42-5.41,5.41-5.41h88.3c5.19,0,9.41-4.26,9.41-9.48s-4.22-9.48-9.41-9.48H111.84c-5.19,0-9.41,4.26-9.41,9.48s4.22,9.48,9.41,9.48h34.27c2.99,0,5.41,2.42,5.41,5.41s-2.42,5.41-5.41,5.41h-34.27ZM173.41,10.82c-1.69,0-3.06,1.36-3.06,3.02v40.26c0,10.46-4.82,20.42-12.89,26.62-1.38,1.06-2.77,2.13-4.13,3.18h63.4c-1.49-1.15-2.88-2.22-4.13-3.18-8.07-6.21-12.89-16.16-12.89-26.62V13.84c0-1.67-1.37-3.02-3.06-3.02h-23.25Z"/>
      <path class="cls-7" d="M246.57,342.44h-61.61c-2.99,0-5.41-2.42-5.41-5.41s2.42-5.41,5.41-5.41h56.2v-9.86h-56.2c-2.99,0-5.41-2.42-5.41-5.41s2.42-5.41,5.41-5.41h61.61c2.99,0,5.41,2.42,5.41,5.41v20.67c0,2.99-2.42,5.41-5.41,5.41ZM45.53,312.77h-4.72c-2.99,0-5.41-2.42-5.41-5.41s2.42-5.41,5.41-5.41h4.72c2.99,0,5.41,2.42,5.41,5.41s-2.42,5.41-5.41,5.41ZM36.48,295.13h-4.72c-2.99,0-5.41-2.42-5.41-5.41s2.42-5.41,5.41-5.41h4.72c2.99,0,5.41,2.42,5.41,5.41s-2.42,5.41-5.41,5.41ZM35.05,264.07c-2.99,0-5.41-2.42-5.41-5.41v-13.72h-3.02c-2.99,0-5.41-2.42-5.41-5.41s2.42-5.41,5.41-5.41h3.02v-10.48h-3.02c-2.99,0-5.41-2.42-5.41-5.41s2.42-5.41,5.41-5.41h3.02v-10.48h-3.02c-2.99,0-5.41-2.42-5.41-5.41s2.42-5.41,5.41-5.41h3.02v-17.33c0-2.99,2.42-5.41,5.41-5.41s5.41,2.42,5.41,5.41v17.33h14.22c-.08-.38-.13-.77-.13-1.17v-16.16c0-2.99,2.42-5.41,5.41-5.41s5.41,2.42,5.41,5.41v16.16c0,1.24-.42,2.38-1.12,3.29.7.91,1.12,2.05,1.12,3.29,0,2.99-2.42,5.41-5.41,5.41h-19.5v10.48h19.5c2.99,0,5.41,2.42,5.41,5.41s-2.42,5.41-5.41,5.41h-19.5v10.48h19.5c2.99,0,5.41,2.42,5.41,5.41s-2.42,5.41-5.41,5.41h-19.5v13.72c0,2.99-2.42,5.41-5.41,5.41ZM5.41,264.07c-2.99,0-5.41-2.42-5.41-5.41v-16.19c0-2.99,2.42-5.41,5.41-5.41s5.41,2.42,5.41,5.41v16.19c0,2.99-2.42,5.41-5.41,5.41ZM118.03,195.8c-2.99,0-5.41-2.42-5.41-5.41v-16.19c0-2.99,2.42-5.41,5.41-5.41s5.41,2.42,5.41,5.41v16.19c0,2.99-2.42,5.41-5.41,5.41Z"/>
    </g>
  </g>
</svg>