<?xml version="1.0" encoding="UTF-8"?>
<svg id="Layer_2" data-name="Layer 2" xmlns="http://www.w3.org/2000/svg" viewBox="0 0 379.87 379.87">
  <defs>
    <style>
      .cls-1, .cls-2, .cls-3, .cls-4, .cls-5, .cls-6, .cls-7, .cls-8, .cls-9, .cls-10, .cls-11 {
        stroke-width: 0px;
      }

      .cls-2 {
        fill: #fcd770;
      }

      .cls-3 {
        fill: #dfb28b;
      }

      .cls-4 {
        fill: #f5e0cd;
      }

      .cls-5 {
        fill: #f0d0b4;
      }

      .cls-6 {
        fill: #ecc19c;
      }

      .cls-7 {
        fill: #b4dd7f;
      }

      .cls-8 {
        fill: #ccd1d9;
      }

      .cls-9 {
        fill: #aab2bd;
      }

      .cls-10 {
        fill: #e6e9ed;
      }

      .cls-11 {
        fill: #ffc729;
      }
    </style>
  </defs>
  <g id="Layer_1-2" data-name="Layer 1">
    <g>
      <path class="cls-2" d="M285.25,53.22l-26-26-18.15,11.81c-8.76-5.39-18.31-9.35-28.31-11.74l-4.47-21.17h-36.76l-4.48,21.17c-10,2.39-19.55,6.35-28.31,11.74l-18.15-11.81-26,26,9.41,22.45.89,46.87h11.49c0-40.6,32.92-73.52,73.52-73.52s73.52,32.92,73.52,73.52h12.25l-.05-46.87,9.58-22.45Z"/>
      <path class="cls-11" d="M98.17,61.69l5.86,13.98.12,46.87h12.25c0-15.79,5.02-30.38,13.5-42.36-7.77-9.89-19-16.79-31.74-18.49h0ZM281.62,61.73c-12.89,1.68-24.19,8.39-31.93,18.07,8.63,12.05,13.77,26.78,13.77,42.74h12.25l-.05-46.87,5.95-13.94Z"/>
      <path class="cls-8" d="M355.36,226.7v-29.88c0-11.24-7.65-21.05-18.56-23.78l-30.45-7.61v-11.08c10.97-6.36,18.38-18.21,18.38-31.81v-10.71c0-20.13-15.51-37.68-35.63-38.29-20.82-.62-37.9,16.07-37.9,36.74v12.25c0,13.6,7.4,25.44,18.38,31.8v11.08l-30.45,7.62c-10.91,2.73-18.56,12.53-18.56,23.77v29.88h134.79Z"/>
      <path class="cls-9" d="M269.59,196.82c0-11.17-5.07-21.28-13.18-28.09l-17.27,4.32c-10.91,2.73-18.56,12.53-18.56,23.77v29.88h49.02v-29.88Z"/>
      <path class="cls-8" d="M159.3,226.7v-29.88c0-11.24-7.65-21.05-18.56-23.78l-30.45-7.61v-11.08c10.97-6.36,18.38-18.21,18.38-31.81v-10.71c0-20.13-15.51-37.68-35.63-38.29-20.82-.62-37.9,16.07-37.9,36.74v12.25c0,13.6,7.4,25.44,18.38,31.8v11.08l-30.45,7.62c-10.91,2.73-18.56,12.53-18.56,23.77v29.88h134.79Z"/>
      <path class="cls-9" d="M159.3,196.82c0-11.25-7.65-21.05-18.56-23.78l-17.27-4.32c-8.12,6.82-13.18,16.93-13.18,28.1v29.88h49.02v-29.88Z"/>
      <path class="cls-8" d="M257.33,226.7v-29.88c0-11.24-7.65-21.05-18.56-23.78l-30.45-7.61v-11.08c10.97-6.36,18.38-18.21,18.38-31.81v-10.71c0-20.13-15.51-37.68-35.63-38.29-20.82-.62-37.9,16.07-37.9,36.74v12.25c0,13.6,7.4,25.44,18.38,31.8v11.08l-30.45,7.62c-10.91,2.73-18.56,12.53-18.56,23.77v29.88h134.79Z"/>
      <g>
        <path class="cls-9" d="M355.36,196.82c0-11.25-7.65-21.05-18.56-23.78l-6.75-1.69-81.87,43.09h-1.39l-26.22-7.49v19.74h134.79v-29.88Z"/>
        <path class="cls-9" d="M257.33,209.63l-9.15,4.82h-1.39l-36.85-10.52c-3.22-.93-6.54-1.37-9.87-1.56l-26.76-8.56c-8.02-2.57-16.38-3.87-24.8-3.87-5.94,0-11.87.65-17.77,1.96l-7.94,1.84c-.13,1.02-.26,2.03-.26,3.08v29.88h134.79v-17.07Z"/>
        <path class="cls-9" d="M130.74,191.9l-26.58,6.16v-9.03l-37.51-21.88-23.58,5.9c-10.91,2.73-18.56,12.54-18.56,23.78v29.88h134.79v-29.88c0-2.15-.36-4.22-.89-6.22-3.28-.4-6.58-.66-9.9-.66-5.93,0-11.87.65-17.77,1.96h0Z"/>
      </g>
      <path class="cls-6" d="M259.25,296.43l-51.77-46.6-9.85-35.39-28.05-8.97c-6.81-2.18-13.92-3.28-21.07-3.29-5.05,0-10.08.55-15,1.65l-72.24,16.73-6.13,49.02,43.19,27.14,78.58,65.53,9.47,8.36c2.29,2.02,5.23,3.13,8.28,3.13h1.13c6.91,0,12.52-5.61,12.52-12.52,0-3.71-1.65-7.24-4.5-9.62,2.91,2.43,6.58,3.75,10.37,3.75,6.91,0,12.52-5.61,12.52-12.52,0-3.71-1.65-7.24-4.5-9.62l-23.48-19.57,24.5,20.42c2.25,1.88,5.09,2.9,8.02,2.9h1.33c6.91,0,12.52-5.61,12.52-12.52,0-3.71-1.65-7.24-4.5-9.62l.97.81c2.28,1.9,5.16,2.95,8.14,2.95h1.06c7.03,0,12.72-5.69,12.72-12.72,0-3.6-1.53-7.04-4.21-9.45h0Z"/>
      <path class="cls-4" d="M259.25,296.43l-51.77-46.6c-3.41-3.07-7.82-4.76-12.41-4.76-3.36,0-6.66.91-9.54,2.64l-22.81,13.69c-2.24,1.34-4.8,2.05-7.41,2.05-7.95,0-14.39-6.44-14.39-14.39v-1.22c0-5.45,3.08-10.44,7.96-12.87l34.18-17.09c4.52-2.27,9.51-3.44,14.56-3.44,3.03,0,6.04.42,8.95,1.26l38.5,11h6.13l116.41-61.27h6.13v79.65l-110.29,55.14-4.21-3.79Z"/>
      <path class="cls-3" d="M189.94,306.35l-8.52,8.86,33.96,28.3c2.9,2.41,6.33,4.04,9.95,4.93.85-1.69,1.37-3.57,1.37-5.59,0-3.71-1.65-7.24-4.5-9.62l-32.26-26.88Z"/>
      <path class="cls-4" d="M153.17,354.62c0,7.17,5.82,13,13,13,3.45,0,6.75-1.37,9.19-3.81l10.76-10.76c2.44-2.44,3.81-5.74,3.81-9.19,0-7.18-5.82-13-12.99-13-3.45,0-6.75,1.37-9.19,3.81l-10.76,10.76c-2.44,2.44-3.81,5.75-3.81,9.2Z"/>
      <path class="cls-4" d="M134.79,336.24c0,7.17,5.82,13,13,13,3.45,0,6.75-1.37,9.19-3.81l10.76-10.76c2.44-2.44,3.81-5.74,3.81-9.19,0-7.18-5.82-13-12.99-13-3.45,0-6.75,1.37-9.19,3.81l-10.76,10.76c-2.44,2.44-3.81,5.75-3.81,9.2Z"/>
      <path class="cls-4" d="M116.41,317.86c0,7.17,5.82,13,13,13,3.45,0,6.75-1.37,9.19-3.81l10.76-10.76c2.44-2.44,3.81-5.74,3.81-9.19,0-7.18-5.82-13-12.99-13-3.45,0-6.75,1.37-9.19,3.81l-10.76,10.76c-2.44,2.44-3.81,5.75-3.81,9.2Z"/>
      <path class="cls-5" d="M139.65,306.56c3.06-3.06,5.16-6.91,6.33-11.04-1.75-.88-3.71-1.43-5.8-1.43-3.45,0-6.75,1.37-9.19,3.81l-10.76,10.76c-2.44,2.44-3.81,5.75-3.81,9.2,0,2.1.54,4.05,1.43,5.8,4.13-1.17,7.99-3.27,11.04-6.33l10.77-10.77ZM158.03,324.94c3.06-3.06,5.16-6.91,6.33-11.04-1.75-.88-3.71-1.43-5.8-1.43-3.45,0-6.75,1.37-9.19,3.81l-10.76,10.76c-2.44,2.44-3.81,5.75-3.81,9.2,0,2.1.54,4.05,1.43,5.8,4.13-1.17,7.99-3.27,11.04-6.33l10.77-10.77ZM176.41,343.32c3.06-3.06,5.16-6.91,6.33-11.04-1.75-.88-3.71-1.43-5.8-1.43-3.45,0-6.75,1.37-9.19,3.81l-10.76,10.76c-2.44,2.44-3.81,5.75-3.81,9.2,0,2.1.54,4.05,1.43,5.8,4.13-1.17,7.99-3.27,11.04-6.33l10.77-10.77Z"/>
      <path class="cls-4" d="M98.03,299.48c0,7.17,5.82,13,13,13,3.45,0,6.75-1.37,9.19-3.81l10.76-10.76c2.44-2.44,3.81-5.74,3.81-9.19,0-7.18-5.82-13-12.99-13-3.45,0-6.75,1.37-9.19,3.81l-10.76,10.76c-2.44,2.44-3.81,5.75-3.81,9.2Z"/>
      <path class="cls-3" d="M102.1,211.11l-40.83,9.46-6.13,49.02,25.65,16.11,21.31-74.59Z"/>
      <path class="cls-10" d="M91.9,202.19l-24.51,85.78h-6.13l-55.14-18.38v-116.41h12.25l73.52,42.89v6.13Z"/>
      <path class="cls-7" d="M67.8,182l-49.42-28.83H6.13v116.41l36.76,12.25,24.51-98.03.4-1.81Z"/>
      <path class="cls-3" d="M208.32,287.97l-8.52,8.86,33.96,28.3c2.9,2.41,6.33,4.04,9.95,4.93.85-1.69,1.37-3.57,1.37-5.59,0-3.71-1.65-7.24-4.5-9.62l-32.26-26.88Z"/>
      <path class="cls-1" d="M379.87,159.3h-13.77l-20.52,10.8c-2.31-1.27-4.71-2.36-7.3-3l-25.81-6.46v-2.93c11.42-7.97,18.39-21.14,18.39-35.16v-10.71c0-23.8-18.65-43.72-41.57-44.42-1.16-.03-2.31.01-3.46.07l6.69-15.67-32.44-32.44-19.13,12.45c-7.24-4.08-14.94-7.27-22.93-9.51l-4.72-22.32h-46.69l-4.72,22.32c-8,2.24-15.7,5.43-22.93,9.51l-19.13-12.45-32.42,32.42,6.58,15.68c-.25-.01-.49-.06-.74-.06-11.73-.34-22.78,3.94-31.18,12.09-8.41,8.14-13.03,19.07-13.03,30.78v12.25c0,14.03,6.96,27.19,18.38,35.15v2.94l-16.84,4.21-30.52-17.8H0v126.96l60.28,20.09h11.74l1.47-5.13,18.48,11.09c.3,10.05,8.36,18.13,18.4,18.48.35,9.99,8.39,18.03,18.38,18.38.35,9.99,8.39,18.03,18.38,18.38.36,10.23,8.74,18.45,19.05,18.45,3.83,0,7.58-1.19,10.74-3.32l5.43,4.79c3.41,3,7.79,4.65,12.33,4.65h1.13c10.2,0,18.49-8.24,18.62-18.4,10.08-.13,18.25-8.3,18.38-18.38,10.09-.13,18.26-8.31,18.38-18.4,10.18-.24,18.4-8.56,18.4-18.8,0-.62-.03-1.22-.09-1.84l110.38-55.18v-89.56ZM318.6,111.83v10.71c0,10.88-5.88,21.03-15.34,26.51l-3.06,1.77.02,19.39,30.61,7.65-67.38,35.46v-16.5c0-8.24-3.33-15.78-8.77-21.35l21.03-5.25v-19.4l-3.06-1.77c-9.45-5.47-15.32-15.63-15.32-26.5v-12.25c0-8.36,3.3-16.17,9.31-21.99,6-5.82,13.96-8.95,22.28-8.63,16.37.49,29.69,14.92,29.69,32.16h0ZM199.17,208.5l-27.74-8.86c-12.64-4.05-26.32-4.65-39.26-1.79l-3.51.78v-1.81c0-8.45,5.73-15.78,13.92-17.84l35.1-8.77v-19.4l-3.06-1.77c-9.45-5.47-15.32-15.63-15.32-26.5v-12.25c0-8.36,3.3-16.17,9.31-21.99,6-5.82,14.01-8.95,22.28-8.63,16.37.49,29.69,14.92,29.69,32.16v10.71c0,10.88-5.88,21.03-15.34,26.51l-3.06,1.77.02,19.39,35.09,8.77c8.19,2.04,13.93,9.4,13.92,17.83v22.96l-1.51.8h-3.75l-37.67-10.76c-2.97-.84-6.03-1.18-9.09-1.3ZM130.04,91.7c11.51-22.29,34.66-36.56,59.9-36.56s48.05,14.07,59.65,36.06c-2.96,5.92-4.5,12.46-4.5,19.08v12.25c0,14.02,6.96,27.19,18.38,35.15v2.94l-24.51,6.14-24.51-6.14v-2.93c11.42-7.97,18.39-21.14,18.39-35.16v-10.71c0-23.8-18.65-43.72-41.57-44.42-11.73-.34-22.78,3.94-31.18,12.09-8.4,8.15-13.03,19.08-13.03,30.78v12.25c0,14.02,6.96,27.19,18.38,35.15v2.94l-24.51,6.14-24.51-6.14v-2.93c11.42-7.97,18.39-21.14,18.39-35.16v-10.71c0-7.21-1.74-14.06-4.75-20.13h0ZM101.86,54.65l19.57-19.57,17.23,11.21,3.3-2.02c8.26-5.06,17.19-8.77,26.53-11l3.77-.9,4.26-20.1h26.83l4.25,20.09,3.77.9c9.34,2.24,18.27,5.94,26.53,11.01l3.3,2.02,17.23-11.21,19.55,19.56-6.95,16.27c-4.73,2.03-9.12,4.9-12.93,8.6-.25.25-.47.51-.71.76-14.43-22.95-39.95-37.36-67.45-37.36s-53.28,14.55-67.68,37.73c-3.85-4.03-8.44-7.3-13.52-9.58l-6.88-16.39ZM79.65,170.21v-19.4l-3.06-1.77c-9.45-5.47-15.32-15.63-15.32-26.5v-12.25c0-8.36,3.3-16.17,9.31-21.99,6-5.82,13.97-8.95,22.28-8.63,16.37.49,29.69,14.92,29.69,32.16v10.71c0,10.88-5.88,21.03-15.33,26.51l-3.06,1.77.02,19.39,21.02,5.25c-5.45,5.57-8.77,13.11-8.77,21.35v4.54l-19.11,4.25.5-1.74.23-11.32-32.31-18.85,13.93-3.48ZM12.25,159.3h4.47l44.06,25.7-22.23,88.93-26.3-8.77v-105.87ZM62.26,281.84l-12.06-4.02,21.6-86.39,13.97,8.15v1.75l-23,80.51h-.51ZM104.16,299.48c0-1.82.73-3.57,2.01-4.86l10.77-10.77c1.29-1.28,3.04-2.01,4.86-2.01,3.79,0,6.87,3.08,6.87,6.87,0,1.82-.73,3.57-2.01,4.86l-10.77,10.77c-1.29,1.28-3.04,2.01-4.86,2.01-3.79,0-6.87-3.08-6.87-6.87h0ZM122.54,317.86c0-1.82.73-3.57,2.01-4.86l10.77-10.77c1.29-1.28,3.04-2.01,4.86-2.01,3.79,0,6.87,3.08,6.87,6.87,0,1.82-.73,3.57-2.01,4.86l-10.77,10.77c-1.29,1.28-3.04,2.01-4.86,2.01-3.79,0-6.87-3.08-6.87-6.87h0ZM140.92,336.24c0-1.82.73-3.57,2.01-4.86l10.77-10.77c1.29-1.28,3.04-2.01,4.86-2.01,3.79,0,6.87,3.08,6.87,6.87,0,1.82-.73,3.57-2.01,4.86l-10.77,10.77c-1.29,1.28-3.04,2.01-4.86,2.01-3.79,0-6.87-3.08-6.87-6.87h0ZM166.17,361.49c-3.79,0-6.87-3.08-6.87-6.87,0-1.82.73-3.57,2.01-4.86l10.77-10.77c1.29-1.28,3.04-2.01,4.86-2.01,3.79,0,6.87,3.08,6.87,6.87,0,1.82-.73,3.57-2.01,4.86l-10.77,10.77c-1.29,1.28-3.04,2.01-4.86,2.01h0ZM195.8,367.62h-1.13c-1.56,0-3.06-.57-4.22-1.6l-4.58-4.04,4.6-4.6c1.64-1.64,2.92-3.6,3.86-5.69l5.57,4.64c1.46,1.21,2.3,3.01,2.3,4.91,0,3.52-2.87,6.39-6.39,6.39h0ZM250.74,312.47h-1.06c-1.54,0-3.03-.54-4.22-1.53l-33.23-27.69-7.85,9.42,32.27,26.88c1.45,1.22,2.29,3.01,2.29,4.91,0,3.52-2.87,6.39-6.39,6.39h-1.34c-1.49,0-2.94-.53-4.09-1.48l-33.28-27.73-7.85,9.42,32.27,26.89c1.46,1.21,2.3,3.01,2.3,4.9,0,3.52-2.87,6.39-6.39,6.39-2.35,0-4.64-.83-6.45-2.33l-13.67-11.4c-3.01-6.16-9.2-10.45-16.45-10.71-.35-9.99-8.39-18.03-18.38-18.38-.35-9.99-8.39-18.03-18.38-18.38-.36-10.23-8.74-18.45-19.05-18.45-5.03,0-9.96,2.04-13.52,5.6l-10.77,10.77c-.64.64-1.18,1.37-1.72,2.1l-18.82-11.29,16.5-57.74,41.36-9.2c10.85-2.43,22.29-1.9,32.87,1.49l9.03,2.89-30.6,15.3c-6.99,3.5-11.34,10.54-11.34,18.36v1.21c0,11.32,9.21,20.53,20.53,20.53,3.72,0,7.38-1.01,10.56-2.93l22.81-13.68c4.58-2.75,10.73-2.14,14.69,1.42l51.77,46.59c1.39,1.25,2.18,3.04,2.18,4.91,0,3.64-2.95,6.59-6.59,6.59h0ZM367.62,241.29l-103.22,51.61c-.34-.36-.69-.7-1.05-1.02l-51.76-46.59c-4.53-4.09-10.41-6.35-16.51-6.34-4.47,0-8.86,1.22-12.69,3.52l-22.82,13.69c-1.28.77-2.75,1.18-4.24,1.18-4.56,0-8.27-3.71-8.27-8.27v-1.21c0-3.16,1.75-5.99,4.57-7.4l34.18-17.09c5.85-2.93,12.79-3.58,19.1-1.77l38.5,11,9.33.23,114.9-60.47v68.94Z"/>
    </g>
  </g>
</svg>